<svg width="231" height="194" viewBox="0 0 231 194" fill="none" xmlns="http://www.w3.org/2000/svg">
<rect width="231" height="194" fill="white"/>
<path d="M159.129 36.7794L117.432 12.4648C116.833 12.1592 116.171 12 115.5 12C114.829 12 114.167 12.1592 113.568 12.4648L71.9323 36.7794C71.3687 37.1521 70.8999 37.654 70.5642 38.2445C70.2284 38.835 70.0351 39.4973 70 40.1776V88.8535C70.0351 89.5316 70.2285 90.1918 70.5643 90.7798C70.9002 91.3677 71.369 91.8668 71.9323 92.2361L113.568 116.535C114.167 116.841 114.829 117 115.5 117C116.171 117 116.833 116.841 117.432 116.535L159.129 92.2051C159.677 91.832 160.131 91.3348 160.456 90.753C160.781 90.1712 160.967 89.5208 161 88.8535V40.1776C160.972 39.5028 160.788 38.844 160.463 38.2539C160.138 37.6639 159.681 37.1589 159.129 36.7794ZM142.996 44.6619C142.988 44.3759 143.036 44.091 143.139 43.8243C143.242 43.5577 143.397 43.3148 143.594 43.1102C143.985 42.7247 144.506 42.503 145.051 42.4896C145.596 42.4896 146.119 42.7086 146.504 43.0986C146.89 43.4885 147.106 44.0174 147.106 44.5688C147.121 44.8556 147.076 45.1424 146.973 45.41C146.87 45.6776 146.711 45.9198 146.508 46.1205C146.126 46.5076 145.607 46.7253 145.067 46.7256C144.524 46.7217 144.004 46.504 143.618 46.1187C143.231 45.7334 143.008 45.2108 142.996 44.6619ZM145.603 52.653C145.799 52.844 145.954 53.0731 146.059 53.3264C146.165 53.5798 146.218 53.8522 146.217 54.1271C146.225 54.4053 146.178 54.6824 146.078 54.9419C145.979 55.2013 145.829 55.4379 145.637 55.6376C145.445 55.8373 145.216 55.996 144.963 56.1044C144.709 56.2128 144.437 56.2685 144.162 56.2684C143.876 56.2934 143.588 56.2579 143.317 56.1644C143.045 56.0708 142.796 55.9212 142.584 55.725C142.373 55.5288 142.204 55.2902 142.089 55.0245C141.973 54.7588 141.913 54.4717 141.913 54.1814C141.913 53.8911 141.973 53.604 142.089 53.3383C142.204 53.0726 142.373 52.834 142.584 52.6378C142.796 52.4416 143.045 52.292 143.317 52.1984C143.588 52.1049 143.876 52.0694 144.162 52.0944C144.696 52.084 145.213 52.2843 145.603 52.653ZM144.223 72.5764C144.633 72.5734 145.035 72.6936 145.377 72.9219C145.72 73.1502 145.988 73.4763 146.147 73.8588C146.306 74.2412 146.349 74.6629 146.271 75.0703C146.193 75.4776 145.997 75.8523 145.708 76.1468C145.419 76.4414 145.05 76.6424 144.648 76.7245C144.246 76.8066 143.829 76.766 143.45 76.6079C143.071 76.4499 142.746 76.1814 142.518 75.8366C142.29 75.4918 142.168 75.0862 142.168 74.6712C142.168 74.1183 142.384 73.5878 142.769 73.1954C143.154 72.803 143.677 72.5805 144.223 72.5764ZM142.03 47.3773C142.313 47.3694 142.594 47.4189 142.857 47.5229C143.121 47.6268 143.361 47.7831 143.564 47.9825C143.855 48.28 144.052 48.6592 144.128 49.0711C144.205 49.4829 144.157 49.9085 143.992 50.2928C143.827 50.6771 143.552 51.0024 143.202 51.2268C142.852 51.4511 142.444 51.5642 142.03 51.5513C141.747 51.561 141.466 51.5123 141.202 51.4083C140.938 51.3043 140.698 51.147 140.497 50.9462C140.298 50.7418 140.141 50.4993 140.035 50.2329C139.93 49.9665 139.878 49.6814 139.883 49.3945C139.893 49.1194 139.957 48.8489 140.07 48.5985C140.183 48.3482 140.344 48.1229 140.543 47.9356C140.743 47.7482 140.977 47.6025 141.232 47.5067C141.487 47.4109 141.758 47.3669 142.03 47.3773ZM137.767 48.3549C138.067 48.6493 138.271 49.0291 138.352 49.4439C138.433 49.8586 138.387 50.2884 138.22 50.6761C138.054 51.0638 137.774 51.3909 137.419 51.6138C137.064 51.8367 136.651 51.9448 136.233 51.9237C135.717 51.8786 135.236 51.6392 134.886 51.2528C134.536 50.8664 134.341 50.3611 134.341 49.8367C134.341 49.3123 134.536 48.807 134.886 48.4206C135.236 48.0342 135.717 47.7948 136.233 47.7497C136.516 47.7382 136.799 47.786 137.063 47.8902C137.327 47.9943 137.566 48.1525 137.767 48.3549ZM138.794 52.1875C139.065 52.1865 139.332 52.2394 139.582 52.3433C139.832 52.4471 140.06 52.5998 140.251 52.7927C140.446 52.9813 140.6 53.2077 140.705 53.4584C140.811 53.7091 140.865 53.9788 140.865 54.2512C140.876 54.5376 140.829 54.8233 140.726 55.0903C140.623 55.3573 140.467 55.5999 140.267 55.8029C140.065 56.0044 139.825 56.163 139.562 56.2696C139.298 56.3762 139.017 56.4285 138.733 56.4236C138.447 56.4485 138.159 56.4131 137.888 56.3196C137.616 56.226 137.367 56.0764 137.155 55.8802C136.944 55.6839 136.775 55.4454 136.66 55.1797C136.544 54.9139 136.485 54.6268 136.485 54.3366C136.485 54.0463 136.544 53.7592 136.66 53.4935C136.775 53.2278 136.944 52.9892 137.155 52.793C137.367 52.5968 137.616 52.4471 137.888 52.3536C138.159 52.26 138.447 52.2246 138.733 52.2496L138.794 52.1875ZM133.059 76.7349C132.789 76.7359 132.521 76.683 132.271 76.5792C132.021 76.4753 131.794 76.3226 131.602 76.1298C131.407 75.9383 131.253 75.7091 131.147 75.4558C131.042 75.2026 130.988 74.9305 130.989 74.6557C130.981 74.3697 131.03 74.0851 131.133 73.8186C131.235 73.5521 131.39 73.3091 131.587 73.104C131.881 72.8089 132.256 72.6099 132.663 72.5326C133.07 72.4552 133.49 72.5032 133.87 72.6703C134.25 72.8374 134.571 73.1159 134.793 73.4698C135.015 73.8238 135.127 74.2368 135.114 74.6557C135.111 75.2069 134.897 75.7355 134.516 76.1298C134.314 76.3312 134.074 76.4899 133.811 76.5965C133.548 76.7031 133.266 76.7554 132.982 76.7504L133.059 76.7349ZM131.035 54.2047C131.029 53.7871 131.146 53.3773 131.372 53.0278C131.598 52.6783 131.922 52.4051 132.302 52.2432C132.683 52.0813 133.102 52.0382 133.507 52.1193C133.912 52.2005 134.283 52.4022 134.574 52.6985C134.865 52.9949 135.061 53.3725 135.139 53.7827C135.216 54.1929 135.17 54.6171 135.007 55.0008C134.844 55.3845 134.572 55.7101 134.225 55.936C133.877 56.1619 133.472 56.2776 133.059 56.2684C132.523 56.2564 132.013 56.0346 131.635 55.6498C131.258 55.2649 131.043 54.7469 131.035 54.2047ZM134.439 44.4292C134.643 44.6296 134.804 44.8714 134.909 45.1388C135.015 45.4062 135.064 45.6931 135.053 45.9808C135.037 46.5109 134.822 47.0149 134.452 47.3899C134.081 47.7649 133.583 47.9824 133.059 47.998C132.789 48.0001 132.52 47.9477 132.27 47.8439C132.02 47.7402 131.793 47.5871 131.601 47.3936C131.41 47.2001 131.259 46.9701 131.156 46.7169C131.054 46.4637 131.002 46.1924 131.004 45.9188C130.996 45.6328 131.045 45.3482 131.148 45.0817C131.251 44.8152 131.405 44.5722 131.602 44.3671C132.004 44.0115 132.526 43.8279 133.059 43.855C133.574 43.8647 134.066 44.0696 134.439 44.4292ZM131.955 49.9686C131.91 50.4911 131.674 50.9776 131.292 51.3321C130.91 51.6866 130.41 51.8833 129.892 51.8833C129.374 51.8833 128.875 51.6866 128.493 51.3321C128.111 50.9776 127.874 50.4911 127.83 49.9686C127.805 49.6794 127.84 49.3882 127.932 49.1134C128.025 48.8386 128.173 48.5863 128.367 48.3724C128.561 48.1585 128.796 47.9877 129.059 47.8709C129.322 47.7541 129.605 47.6937 129.892 47.6937C130.179 47.6937 130.463 47.7541 130.725 47.8709C130.988 47.9877 131.224 48.1585 131.418 48.3724C131.612 48.5863 131.76 48.8386 131.852 49.1134C131.945 49.3882 131.98 49.6794 131.955 49.9686ZM127.216 52.5134C127.627 52.5103 128.029 52.6309 128.372 52.8599C128.715 53.0889 128.983 53.4159 129.141 53.7993C129.3 54.1827 129.342 54.6051 129.263 55.0129C129.183 55.4207 128.986 55.7954 128.695 56.0893C128.405 56.3832 128.035 56.583 127.632 56.6633C127.229 56.7436 126.811 56.7008 126.432 56.5404C126.053 56.3799 125.73 56.109 125.504 55.7622C125.277 55.4153 125.158 55.0082 125.161 54.5926C125.161 54.3195 125.214 54.0492 125.318 53.7969C125.421 53.5446 125.572 53.3154 125.763 53.1223C125.954 52.9293 126.181 52.7761 126.43 52.6716C126.679 52.5671 126.946 52.5134 127.216 52.5134ZM125.161 74.3143C125.167 73.9007 125.294 73.4982 125.526 73.1575C125.758 72.8168 126.084 72.5532 126.464 72.3999C126.844 72.2466 127.26 72.2104 127.66 72.296C128.06 72.3815 128.425 72.585 128.711 72.8807C128.997 73.1764 129.19 73.5511 129.266 73.9576C129.341 74.364 129.297 74.7841 129.137 75.1648C128.977 75.5455 128.709 75.8697 128.367 76.0967C128.026 76.3236 127.625 76.4431 127.216 76.4401C126.943 76.4381 126.673 76.3814 126.422 76.2733C126.17 76.1651 125.942 76.0077 125.751 75.8101C125.56 75.6125 125.41 75.3786 125.309 75.1219C125.207 74.8652 125.157 74.5907 125.161 74.3143ZM128.934 40.7517C129.479 40.7547 130.001 40.9716 130.391 41.3568C130.775 41.7491 130.99 42.2789 130.99 42.8309C130.99 43.383 130.775 43.9128 130.391 44.305C130.201 44.5021 129.975 44.6586 129.725 44.7652C129.474 44.8718 129.205 44.9264 128.934 44.9257C128.648 44.9506 128.36 44.9152 128.089 44.8217C127.817 44.7281 127.568 44.5785 127.356 44.3823C127.145 44.186 126.976 43.9475 126.861 43.6818C126.745 43.4161 126.685 43.129 126.685 42.8387C126.685 42.5484 126.745 42.2613 126.861 41.9956C126.976 41.7299 127.145 41.4913 127.356 41.2951C127.568 41.0989 127.817 40.9492 128.089 40.8557C128.36 40.7622 128.648 40.7267 128.934 40.7517ZM125.713 44.7085C126.123 44.7085 126.524 44.8317 126.865 45.0626C127.206 45.2935 127.471 45.6215 127.627 46.0052C127.784 46.3889 127.824 46.8109 127.743 47.2176C127.662 47.6244 127.463 47.9976 127.172 48.2899C126.881 48.5823 126.51 48.7805 126.108 48.8596C125.705 48.9387 125.288 48.8949 124.91 48.734C124.532 48.5731 124.21 48.3022 123.984 47.9557C123.759 47.6092 123.64 47.2026 123.643 46.7877C123.635 46.5082 123.682 46.2298 123.783 45.9693C123.883 45.7088 124.035 45.4715 124.228 45.2716C124.421 45.0716 124.653 44.9132 124.908 44.8058C125.163 44.6984 125.437 44.6442 125.713 44.6464V44.7085ZM123.214 49.1617C123.623 49.1617 124.023 49.2846 124.364 49.5148C124.704 49.7449 124.97 50.0721 125.126 50.4549C125.283 50.8376 125.324 51.2588 125.244 51.6652C125.164 52.0715 124.967 52.4448 124.678 52.7377C124.388 53.0307 124.019 53.2302 123.618 53.311C123.216 53.3918 122.8 53.3504 122.421 53.1918C122.043 53.0333 121.72 52.7648 121.492 52.4203C121.265 52.0758 121.143 51.6708 121.143 51.2565C121.133 50.9757 121.179 50.6956 121.279 50.4333C121.378 50.171 121.529 49.9318 121.723 49.7302C121.916 49.5286 122.148 49.3688 122.404 49.2605C122.661 49.1521 122.936 49.0974 123.214 49.0997V49.1617ZM125.269 77.7745C125.272 78.1901 125.152 78.5973 124.926 78.9441C124.7 79.291 124.377 79.5619 123.998 79.7223C123.619 79.8828 123.201 79.9256 122.798 79.8453C122.395 79.7649 122.025 79.5651 121.735 79.2712C121.444 78.9773 121.247 78.6027 121.167 78.1949C121.088 77.7871 121.13 77.3646 121.289 76.9812C121.447 76.5978 121.715 76.2708 122.058 76.0419C122.401 75.8129 122.803 75.6922 123.214 75.6953C123.748 75.6951 124.262 75.9056 124.645 76.2822C125.029 76.6588 125.253 77.1719 125.269 77.7125V77.7745ZM122.892 44.724C122.895 45.1376 122.777 45.5428 122.552 45.8886C122.328 46.2345 122.007 46.5053 121.631 46.6671C121.255 46.8289 120.84 46.8744 120.438 46.7978C120.036 46.7212 119.666 46.526 119.374 46.2368C119.082 45.9476 118.88 45.5773 118.796 45.1726C118.711 44.7679 118.747 44.3469 118.899 43.9628C119.05 43.5786 119.311 43.2484 119.647 43.0139C119.984 42.7793 120.382 42.6509 120.791 42.6447C121.064 42.6406 121.335 42.6913 121.589 42.7937C121.843 42.8962 122.074 43.0485 122.269 43.2417C122.464 43.435 122.62 43.6655 122.727 43.9199C122.834 44.1743 122.89 44.4476 122.892 44.724ZM118.291 47.2687C118.7 47.2749 119.098 47.4033 119.434 47.6379C119.771 47.8724 120.032 48.2026 120.183 48.5867C120.335 48.9709 120.37 49.3919 120.286 49.7966C120.201 50.2012 120 50.5715 119.708 50.8608C119.416 51.15 119.045 51.3452 118.644 51.4218C118.242 51.4984 117.827 51.4529 117.451 51.2911C117.074 51.1293 116.754 50.8584 116.53 50.5126C116.305 50.1668 116.187 49.7616 116.19 49.3479C116.19 49.0736 116.244 48.8019 116.348 48.5487C116.452 48.2954 116.605 48.0655 116.797 47.8722C116.99 47.6789 117.218 47.5261 117.469 47.4225C117.72 47.3189 117.989 47.2667 118.26 47.2687H118.291ZM117.724 44.0257C117.724 44.44 117.602 44.845 117.375 45.1895C117.147 45.534 116.824 45.8025 116.446 45.961C116.067 46.1196 115.651 46.161 115.249 46.0802C114.848 45.9994 114.479 45.7999 114.189 45.5069C113.9 45.214 113.703 44.8407 113.623 44.4344C113.543 44.028 113.584 43.6069 113.741 43.2241C113.897 42.8413 114.163 42.5142 114.503 42.284C114.844 42.0538 115.244 41.931 115.653 41.931C116.201 41.935 116.725 42.157 117.113 42.549C117.5 42.941 117.72 43.4714 117.724 44.0257ZM115.807 37.4777C116.007 37.681 116.165 37.9233 116.27 38.19C116.376 38.4566 116.427 38.7422 116.42 39.0293C116.421 39.3028 116.369 39.5737 116.266 39.8267C116.164 40.0796 116.013 40.3096 115.822 40.5034C115.633 40.7012 115.407 40.8582 115.156 40.9648C114.906 41.0715 114.637 41.1257 114.365 41.1241C113.849 41.079 113.368 40.8396 113.018 40.4532C112.667 40.0668 112.473 39.5615 112.473 39.0371C112.473 38.5127 112.667 38.0074 113.018 37.621C113.368 37.2346 113.849 36.9952 114.365 36.9501C114.879 36.9461 115.376 37.134 115.761 37.4777H115.807ZM115.117 49.3479C115.12 49.7636 115 50.1707 114.774 50.5175C114.548 50.8644 114.225 51.1353 113.846 51.2957C113.467 51.4562 113.049 51.499 112.646 51.4187C112.243 51.3383 111.873 51.1385 111.582 50.8446C111.292 50.5507 111.095 50.1761 111.015 49.7683C110.936 49.3605 110.978 48.938 111.137 48.5546C111.295 48.1712 111.563 47.8443 111.906 47.6153C112.249 47.3863 112.651 47.2656 113.062 47.2687C113.599 47.2809 114.11 47.5053 114.485 47.8939C114.861 48.2825 115.071 48.8045 115.071 49.3479H115.117ZM112.494 44.7705C112.494 45.1855 112.372 45.5911 112.144 45.9359C111.916 46.2807 111.592 46.5492 111.213 46.7073C110.833 46.8653 110.416 46.9059 110.014 46.8238C109.612 46.7417 109.244 46.5407 108.955 46.2462C108.666 45.9517 108.47 45.577 108.392 45.1696C108.314 44.7622 108.357 44.3406 108.516 43.9581C108.675 43.5756 108.943 43.2495 109.285 43.0212C109.627 42.7929 110.029 42.6727 110.439 42.6758C110.979 42.688 111.492 42.9146 111.868 43.3065C112.244 43.6985 112.452 44.2244 112.448 44.7705H112.494ZM111.375 39.7586C111.377 40.033 111.325 40.305 111.223 40.5591C111.12 40.8131 110.969 41.0442 110.778 41.2389C110.587 41.4336 110.36 41.5882 110.11 41.6936C109.859 41.7991 109.591 41.8534 109.32 41.8534C108.912 41.8549 108.514 41.7338 108.174 41.5054C107.835 41.2771 107.57 40.9518 107.414 40.5709C107.258 40.19 107.217 39.7707 107.297 39.3664C107.377 38.962 107.574 38.5909 107.863 38.3001C108.252 37.9119 108.774 37.6897 109.32 37.6794C109.854 37.6992 110.361 37.9261 110.735 38.313C111.109 38.7 111.321 39.2175 111.329 39.7586H111.375ZM108.139 49.0686C108.548 49.0686 108.949 49.1915 109.289 49.4217C109.63 49.6519 109.895 49.979 110.052 50.3618C110.208 50.7445 110.249 51.1657 110.17 51.5721C110.09 51.9784 109.892 52.3517 109.603 52.6446C109.313 52.9376 108.945 53.1371 108.543 53.2179C108.141 53.2987 107.725 53.2573 107.347 53.0987C106.968 52.9402 106.645 52.6717 106.418 52.3272C106.19 51.9827 106.069 51.5777 106.069 51.1634C106.073 50.62 106.287 50.0997 106.665 49.714C107.043 49.3283 107.556 49.1078 108.093 49.0997L108.139 49.0686ZM107.664 46.7877C107.667 47.2026 107.548 47.6092 107.322 47.9557C107.097 48.3022 106.774 48.5731 106.396 48.734C106.018 48.8949 105.602 48.9387 105.199 48.8596C104.796 48.7805 104.426 48.5823 104.135 48.2899C103.844 47.9976 103.645 47.6244 103.564 47.2176C103.483 46.8109 103.523 46.3889 103.679 46.0052C103.835 45.6215 104.101 45.2935 104.442 45.0626C104.782 44.8317 105.183 44.7085 105.593 44.7085C106.137 44.7207 106.654 44.9489 107.033 45.3438C107.412 45.7386 107.622 46.2685 107.618 46.8187L107.664 46.7877ZM104.044 52.5444C104.451 52.5447 104.848 52.6658 105.186 52.8927C105.525 53.1197 105.79 53.4424 105.949 53.8206C106.107 54.1989 106.153 54.616 106.079 55.0201C106.005 55.4242 105.815 55.7974 105.533 56.0932C105.251 56.389 104.89 56.5944 104.493 56.6838C104.097 56.7731 103.683 56.7426 103.304 56.5958C102.925 56.4491 102.596 56.1927 102.36 55.8586C102.123 55.5245 101.989 55.1274 101.974 54.7167C101.964 54.4352 102.01 54.1544 102.109 53.8913C102.209 53.6281 102.36 53.3879 102.553 53.1851C102.746 52.9823 102.978 52.821 103.234 52.7109C103.49 52.6008 103.766 52.5442 104.044 52.5444ZM102.327 63.4061C102.503 63.7217 102.595 64.0785 102.593 64.4412C102.592 64.8038 102.496 65.1597 102.316 65.4734C102.136 65.7871 101.879 66.0478 101.568 66.2295C101.258 66.4112 100.906 66.5077 100.548 66.5094C100.197 66.5237 99.8487 66.4453 99.5368 66.2821C99.2249 66.1189 98.9604 65.8764 98.7691 65.5784C98.5019 65.1088 98.4249 64.5526 98.5544 64.0267C98.6207 63.7611 98.7391 63.5116 98.9024 63.2931C99.0657 63.0745 99.2707 62.8913 99.5052 62.7544C99.7382 62.603 99.999 62.5009 100.272 62.454C100.545 62.4072 100.825 62.4167 101.094 62.4819C101.363 62.5471 101.617 62.6668 101.839 62.8336C102.061 63.0004 102.248 63.2109 102.388 63.4526L102.327 63.4061ZM102.388 61.0475C102.073 61.2366 101.712 61.3333 101.345 61.3268C100.984 61.3285 100.628 61.2335 100.314 61.0514C99.9999 60.8692 99.7391 60.6065 99.5577 60.2896C99.3764 59.9728 99.2809 59.6131 99.281 59.2469C99.2812 58.8808 99.3768 58.5212 99.5584 58.2044C99.74 57.8877 100.001 57.6251 100.315 57.4432C100.629 57.2613 100.985 57.1665 101.347 57.1684C101.709 57.1703 102.064 57.2689 102.376 57.4542C102.688 57.6395 102.946 57.9048 103.124 58.2235C103.389 58.6985 103.46 59.2594 103.323 59.7867C103.185 60.3141 102.85 60.7664 102.388 61.0475ZM101.468 71.7851C100.966 71.7891 100.48 71.6086 100.1 71.2771C99.7201 70.9457 99.472 70.4858 99.4019 69.9831C99.3317 69.4804 99.4445 68.969 99.7191 68.544C99.9937 68.1191 100.411 67.8096 100.895 67.6729C101.378 67.5363 101.894 67.5819 102.346 67.8013C102.799 68.0206 103.157 68.3988 103.355 68.8655C103.552 69.3322 103.576 69.8556 103.421 70.3384C103.265 70.8212 102.942 71.2305 102.511 71.4903C102.198 71.6863 101.836 71.7885 101.468 71.7851ZM101.974 74.2833C101.95 73.9941 101.985 73.7029 102.077 73.4281C102.169 73.1533 102.317 72.901 102.511 72.6871C102.705 72.4732 102.941 72.3024 103.204 72.1856C103.466 72.0687 103.75 72.0084 104.037 72.0084C104.324 72.0084 104.607 72.0687 104.87 72.1856C105.133 72.3024 105.368 72.4732 105.562 72.6871C105.756 72.901 105.904 73.1533 105.997 73.4281C106.089 73.7029 106.124 73.9941 106.099 74.2833C106.055 74.8057 105.818 75.2923 105.436 75.6467C105.054 76.0012 104.555 76.1979 104.037 76.1979C103.519 76.1979 103.019 76.0012 102.637 75.6467C102.255 75.2923 102.019 74.8057 101.974 74.2833ZM103.508 50.0152C103.511 50.4301 103.392 50.8366 103.166 51.1831C102.941 51.5297 102.618 51.8006 102.24 51.9615C101.862 52.1224 101.446 52.1661 101.043 52.0871C100.64 52.008 100.27 51.8097 99.9791 51.5174C99.688 51.2251 99.4893 50.8519 99.4082 50.4451C99.327 50.0383 99.3671 49.6164 99.5234 49.2327C99.6796 48.849 99.9449 48.5209 100.286 48.2901C100.626 48.0592 101.027 47.9359 101.437 47.9359C101.98 47.9522 102.494 48.1848 102.867 48.583C103.241 48.9813 103.443 49.5128 103.431 50.0617L103.508 50.0152ZM102.312 44.274C102.323 44.5604 102.276 44.846 102.173 45.1131C102.07 45.3801 101.914 45.6227 101.714 45.8257C101.525 46.0234 101.298 46.1804 101.048 46.2871C100.798 46.3938 100.528 46.4479 100.257 46.4463C99.8426 46.4639 99.4329 46.3544 99.0815 46.1321C98.73 45.9099 98.4532 45.5853 98.2873 45.201C98.1215 44.8167 98.0744 44.3906 98.1521 43.9787C98.2299 43.5669 98.4289 43.1884 98.7231 42.893C98.9119 42.6952 99.1383 42.5383 99.3887 42.4316C99.6391 42.3249 99.9083 42.2707 100.18 42.2723C100.715 42.2799 101.226 42.4951 101.609 42.8734C101.991 43.2517 102.215 43.7642 102.235 44.305L102.312 44.274ZM100.318 54.2512C100.321 54.6662 100.202 55.0727 99.9766 55.4192C99.7509 55.7657 99.4287 56.0366 99.0507 56.1976C98.6727 56.3585 98.2559 56.4022 97.8533 56.3231C97.4507 56.2441 97.0804 56.0458 96.7893 55.7535C96.4983 55.4611 96.2996 55.0879 96.2184 54.6811C96.1373 54.2744 96.1774 53.8524 96.3336 53.4687C96.4899 53.0851 96.7552 52.757 97.096 52.5261C97.4367 52.2953 97.8376 52.172 98.2477 52.172C98.7861 52.1922 99.2954 52.4239 99.6677 52.8179C100.04 53.2119 100.246 53.7372 100.241 54.2823L100.318 54.2512ZM93.4938 64.0267C93.5978 63.6264 93.8166 63.2663 94.1227 62.9917C94.4288 62.7172 94.8085 62.5405 95.2137 62.4841C95.6189 62.4277 96.0316 62.494 96.3997 62.6746C96.7677 62.8553 97.0746 63.1422 97.2816 63.4992C97.556 63.9771 97.6325 64.5453 97.4947 65.0801C97.3568 65.6149 97.0156 66.0729 96.5455 66.3542C96.2276 66.5369 95.8683 66.6332 95.5027 66.6335C95.3297 66.6572 95.1543 66.6572 94.9813 66.6335C94.7187 66.5664 94.4722 66.4467 94.2562 66.2815C94.0402 66.1162 93.8591 65.9088 93.7238 65.6715C93.5731 65.4292 93.4748 65.1574 93.4352 64.874C93.3955 64.5905 93.4155 64.3018 93.4938 64.0267ZM95.1346 57.4942C95.5988 57.2238 96.1485 57.146 96.6682 57.277C96.9307 57.3441 97.1773 57.4638 97.3933 57.629C97.6093 57.7943 97.7903 58.0017 97.9257 58.239C98.0636 58.4751 98.1539 58.7365 98.1915 59.0081C98.2292 59.2797 98.2133 59.5562 98.1449 59.8216C98.0765 60.0869 97.9568 60.336 97.7929 60.5544C97.6289 60.7728 97.4239 60.9562 97.1896 61.0941C96.8752 61.2855 96.5135 61.3823 96.1468 61.3734C95.6933 61.3766 95.2516 61.2279 94.8904 60.9505C94.5291 60.6731 94.2687 60.2827 94.1497 59.8399C94.0307 59.3972 94.0598 58.9271 94.2324 58.5028C94.405 58.0785 94.7114 57.7239 95.104 57.4942H95.1346ZM94.4446 68.6818C94.7214 68.2022 95.1728 67.8513 95.7021 67.7042C95.9602 67.6383 96.2287 67.6249 96.4919 67.6648C96.7552 67.7048 97.008 67.7973 97.2356 67.937C97.4699 68.0748 97.6749 68.2583 97.8389 68.4767C98.0028 68.6951 98.1225 68.9441 98.1909 69.2095C98.2593 69.4749 98.2752 69.7513 98.2375 70.0229C98.1999 70.2945 98.1096 70.5559 97.9717 70.792C97.7883 71.1041 97.5279 71.3625 97.2161 71.5421C96.9042 71.7216 96.5516 71.816 96.1928 71.8161C95.8272 71.8157 95.4679 71.7195 95.15 71.5368C94.9182 71.3964 94.7161 71.2111 94.5552 70.9915C94.3943 70.772 94.2777 70.5225 94.2122 70.2573C94.1467 69.9921 94.1335 69.7165 94.1733 69.4461C94.2132 69.1758 94.3054 68.916 94.4446 68.6818ZM98.5391 47.8428C98.5558 48.1269 98.5151 48.4114 98.4195 48.679C98.3239 48.9466 98.1754 49.1917 97.9831 49.3993C97.7908 49.607 97.5588 49.7728 97.301 49.8867C97.0433 50.0005 96.7654 50.0601 96.4842 50.0617C96.2139 50.0627 95.9462 50.0098 95.6962 49.906C95.4462 49.8021 95.2189 49.6494 95.0273 49.4566C94.8222 49.2567 94.6615 49.015 94.5557 48.7475C94.45 48.4799 94.4016 48.1927 94.4139 47.9049C94.4129 47.6315 94.4652 47.3605 94.5678 47.1076C94.6705 46.8546 94.8214 46.6247 95.012 46.4308C95.2095 46.2233 95.4484 46.0606 95.7128 45.9536C95.9772 45.8466 96.261 45.7977 96.5455 45.8101C97.0825 45.8263 97.5918 46.0547 97.9644 46.4462C98.3371 46.8377 98.5433 47.3614 98.5391 47.9049V47.8428ZM93.5551 50.0617C94.1003 50.0657 94.6223 50.2856 95.0092 50.6742C95.3962 51.0628 95.6174 51.5893 95.6254 52.141C95.6264 52.4144 95.5741 52.6853 95.4714 52.9383C95.3688 53.1912 95.2179 53.4212 95.0273 53.615C94.8298 53.8226 94.5909 53.9852 94.3265 54.0922C94.0621 54.1992 93.7783 54.2481 93.4938 54.2357C92.9774 54.1906 92.4966 53.9512 92.1462 53.5648C91.7959 53.1784 91.6015 52.6731 91.6015 52.1487C91.6015 51.6243 91.7959 51.119 92.1462 50.7326C92.4966 50.3462 92.9774 50.1068 93.4938 50.0617H93.5551ZM91.5462 54.7167C91.8298 54.6993 92.1139 54.7443 92.3787 54.8488C92.6434 54.9533 92.8826 55.1147 93.0797 55.3219C93.284 55.5224 93.4442 55.7642 93.5499 56.0315C93.6556 56.2989 93.7044 56.5858 93.6931 56.8735C93.6931 57.4264 93.4771 57.9569 93.0922 58.3493C92.7072 58.7417 92.1846 58.9642 91.6382 58.9683C91.3683 58.9703 91.1007 58.9186 90.8506 58.816C90.6005 58.7134 90.3729 58.5619 90.1806 58.3703C89.9884 58.1787 89.8353 57.9506 89.7302 57.6991C89.6251 57.4476 89.5699 57.1776 89.5679 56.9046C89.5672 56.3632 89.7721 55.8423 90.1403 55.4495C90.5085 55.0567 91.0119 54.8222 91.5462 54.7943V54.7167ZM90.534 59.7441C91.0778 59.7482 91.5982 59.9686 91.9827 60.3576C92.3672 60.7467 92.585 61.2732 92.589 61.8234C92.5968 62.1093 92.5479 62.394 92.4451 62.6605C92.3424 62.927 92.188 63.1699 91.9909 63.375C91.7993 63.5679 91.572 63.7206 91.322 63.8244C91.072 63.9283 90.8043 63.9812 90.534 63.9802C90.0177 63.9351 89.5369 63.6957 89.1865 63.3093C88.8362 62.9229 88.6418 62.4176 88.6418 61.8932C88.6418 61.3688 88.8362 60.8635 89.1865 60.4771C89.5369 60.0907 90.0177 59.8513 90.534 59.8062V59.7441ZM88.5865 67.1301C88.5834 66.7151 88.7022 66.3086 88.9279 65.9621C89.1535 65.6156 89.4758 65.3447 89.8538 65.1838C90.2318 65.0228 90.6485 64.9791 91.0511 65.0582C91.4537 65.1373 91.8241 65.3355 92.1151 65.6279C92.4062 65.9202 92.6049 66.2934 92.686 66.7002C92.7672 67.1069 92.7271 67.5289 92.5708 67.9126C92.4146 68.2962 92.1493 68.6243 91.8085 68.8552C91.4677 69.0861 91.0668 69.2093 90.6567 69.2093C90.1103 69.2093 89.586 68.9908 89.1982 68.6013C88.8104 68.2118 88.5905 67.683 88.5865 67.1301ZM89.6293 72.142C89.6263 71.7251 89.7464 71.3167 89.9741 70.9693C90.2018 70.6218 90.5268 70.351 90.9076 70.1915C91.2883 70.0321 91.7074 69.9912 92.1112 70.0741C92.515 70.157 92.8852 70.3599 93.1743 70.6569C93.4635 70.9539 93.6585 71.3315 93.7344 71.7413C93.8102 72.1511 93.7635 72.5745 93.6002 72.9573C93.4369 73.34 93.1644 73.6648 92.8176 73.89C92.4708 74.1151 92.0655 74.2305 91.6535 74.2212C91.3785 74.2275 91.1051 74.1778 90.8494 74.0751C90.5937 73.9724 90.361 73.8189 90.1651 73.6235C89.9692 73.4282 89.814 73.195 89.7088 72.9378C89.6036 72.6807 89.5505 72.4048 89.5526 72.1265L89.6293 72.142ZM91.6535 76.797C91.6535 76.3827 91.7749 75.9777 92.0024 75.6332C92.2299 75.2887 92.5532 75.0202 92.9315 74.8617C93.3098 74.7031 93.7261 74.6617 94.1277 74.7425C94.5293 74.8233 94.8982 75.0228 95.1877 75.3158C95.4772 75.6087 95.6744 75.982 95.7543 76.3883C95.8342 76.7947 95.7932 77.2159 95.6365 77.5986C95.4798 77.9814 95.2144 78.3085 94.874 78.5387C94.5335 78.7689 94.1333 78.8917 93.7238 78.8917C93.1814 78.8959 92.6594 78.6829 92.2716 78.2992C91.8838 77.9155 91.6616 77.3923 91.6535 76.8435V76.797ZM94.5212 81.0951C94.5243 80.6846 94.6474 80.2841 94.875 79.9442C95.1026 79.6043 95.4246 79.3402 95.8003 79.1852C96.1761 79.0303 96.5888 78.9913 96.9864 79.0733C97.384 79.1552 97.7487 79.3545 98.0346 79.6459C98.3204 79.9373 98.5146 80.3078 98.5927 80.7107C98.6707 81.1136 98.6291 81.5308 98.4732 81.9099C98.3172 82.2889 98.0538 82.6127 97.7162 82.8405C97.3786 83.0683 96.9819 83.1899 96.5762 83.1899C96.305 83.1899 96.0365 83.1356 95.7862 83.0301C95.5359 82.9247 95.3087 82.7701 95.1177 82.5754C94.9266 82.3807 94.7756 82.1496 94.6732 81.8956C94.5709 81.6415 94.5192 81.3695 94.5212 81.0951ZM96.1468 74.7177C96.1468 74.3034 96.2682 73.8985 96.4957 73.554C96.7232 73.2095 97.0465 72.941 97.4248 72.7824C97.8031 72.6239 98.2194 72.5824 98.6209 72.6632C99.0225 72.7441 99.3914 72.9436 99.681 73.2365C99.9705 73.5295 100.168 73.9027 100.248 74.3091C100.327 74.7154 100.286 75.1366 100.13 75.5194C99.973 75.9021 99.7077 76.2293 99.3672 76.4595C99.0268 76.6897 98.6265 76.8125 98.2171 76.8125C97.9439 76.8125 97.6734 76.7578 97.4212 76.6516C97.1691 76.5453 96.9401 76.3896 96.7477 76.1935C96.5553 75.9973 96.4031 75.7646 96.2999 75.5086C96.1968 75.2527 96.1448 74.9786 96.1468 74.7022V74.7177ZM98.2324 84.6795C98.277 84.157 98.5136 83.6705 98.8954 83.316C99.2773 82.9615 99.7767 82.7648 100.295 82.7648C100.813 82.7648 101.313 82.9615 101.695 83.316C102.076 83.6705 102.313 84.157 102.358 84.6795C102.382 84.9687 102.347 85.2599 102.255 85.5347C102.162 85.8095 102.014 86.0618 101.821 86.2757C101.627 86.4896 101.391 86.6604 101.128 86.7772C100.866 86.894 100.582 86.9543 100.295 86.9543C100.008 86.9543 99.7244 86.894 99.4618 86.7772C99.1991 86.6604 98.9634 86.4896 98.7694 86.2757C98.5755 86.0618 98.4276 85.8095 98.3352 85.5347C98.2427 85.2599 98.2077 84.9687 98.2324 84.6795ZM102.833 80.4124C102.448 80.7969 101.932 81.0188 101.391 81.033C101.106 81.058 100.818 81.0226 100.546 80.929C100.275 80.8355 100.025 80.6859 99.8139 80.4896C99.6025 80.2934 99.4337 80.0549 99.3183 79.7891C99.2028 79.5234 99.1432 79.2363 99.1432 78.9461C99.1432 78.6558 99.2028 78.3687 99.3183 78.103C99.4337 77.8372 99.6025 77.5987 99.8139 77.4025C100.025 77.2062 100.275 77.0566 100.546 76.9631C100.818 76.8695 101.106 76.8341 101.391 76.8591C101.662 76.8549 101.93 76.9053 102.181 77.0071C102.432 77.109 102.661 77.2604 102.854 77.4524C103.046 77.6445 103.199 77.8734 103.304 78.1258C103.408 78.3782 103.462 78.6491 103.462 78.9228C103.466 79.1967 103.415 79.4687 103.313 79.7221C103.21 79.9755 103.057 80.2051 102.864 80.3969L102.833 80.4124ZM102.511 87.3949C102.508 86.9799 102.627 86.5734 102.852 86.2269C103.078 85.8804 103.4 85.6095 103.778 85.4486C104.156 85.2876 104.573 85.2439 104.976 85.323C105.378 85.4021 105.749 85.6003 106.04 85.8927C106.331 86.185 106.529 86.5582 106.611 86.965C106.692 87.3717 106.652 87.7937 106.495 88.1774C106.339 88.561 106.074 88.8891 105.733 89.12C105.392 89.3509 104.991 89.4741 104.581 89.4741C104.311 89.4721 104.045 89.4163 103.796 89.3099C103.547 89.2036 103.322 89.0487 103.133 88.8542C102.943 88.6597 102.794 88.4293 102.692 88.1762C102.591 87.9232 102.54 87.6524 102.542 87.3794L102.511 87.3949ZM107.035 83.6243C106.65 84.0181 106.126 84.2412 105.578 84.245C105.295 84.2547 105.013 84.206 104.75 84.102C104.486 83.9979 104.246 83.8407 104.044 83.6398C103.645 83.2251 103.425 82.6672 103.431 82.0882C103.431 81.5353 103.647 81.0048 104.032 80.6124C104.417 80.22 104.94 79.9975 105.486 79.9934C105.758 79.9893 106.028 80.0401 106.28 80.143C106.532 80.2458 106.761 80.3985 106.954 80.5922C107.146 80.7859 107.299 81.0167 107.403 81.2709C107.506 81.5251 107.558 81.7977 107.556 82.0727C107.585 82.3492 107.557 82.6288 107.472 82.8935C107.388 83.1581 107.249 83.4018 107.066 83.6088L107.035 83.6243ZM108.062 79.8227C107.652 79.8258 107.25 79.7056 106.908 79.4773C106.566 79.249 106.298 78.9229 106.139 78.5404C105.98 78.1579 105.937 77.7363 106.015 77.3289C106.093 76.9216 106.289 76.5469 106.578 76.2523C106.867 75.9578 107.235 75.7568 107.637 75.6747C108.039 75.5926 108.457 75.6332 108.836 75.7912C109.215 75.9493 109.539 76.2178 109.767 76.5626C109.995 76.9074 110.117 77.313 110.117 77.728C110.113 78.2729 109.9 78.7948 109.522 79.183C109.144 79.5712 108.631 79.7951 108.093 79.8072L108.062 79.8227ZM108.384 84.1984C108.377 83.9125 108.426 83.6279 108.528 83.3614C108.631 83.0949 108.785 82.8519 108.982 82.6468C109.272 82.3567 109.64 82.1594 110.039 82.0798C110.439 82.0001 110.853 82.0416 111.23 82.199C111.606 82.3563 111.929 82.6226 112.156 82.9645C112.384 83.3064 112.507 83.7086 112.51 84.1209C112.51 84.6738 112.294 85.2042 111.909 85.5966C111.524 85.989 111.001 86.2115 110.455 86.2156C109.919 86.216 109.403 86.006 109.017 85.6298C108.631 85.2535 108.404 84.7405 108.384 84.1984ZM115.071 79.5434C115.071 79.9584 114.949 80.364 114.721 80.7088C114.492 81.0536 114.168 81.3221 113.789 81.4802C113.41 81.6383 112.993 81.6788 112.591 81.5967C112.189 81.5146 111.82 81.3136 111.531 81.0191C111.242 80.7246 111.046 80.3499 110.968 79.9425C110.89 79.5352 110.933 79.1135 111.092 78.731C111.251 78.3485 111.519 78.0224 111.861 77.7942C112.204 77.5659 112.606 77.4456 113.016 77.4487C113.287 77.4487 113.555 77.503 113.806 77.6084C114.056 77.7139 114.283 77.8684 114.474 78.0632C114.665 78.2579 114.816 78.4889 114.919 78.743C115.021 78.997 115.073 79.2691 115.071 79.5434ZM112.387 89.9396C112.384 89.524 112.503 89.1169 112.729 88.77C112.956 88.4232 113.279 88.1523 113.658 87.9918C114.037 87.8314 114.454 87.7886 114.857 87.8689C115.26 87.9493 115.631 88.1491 115.921 88.443C116.212 88.7368 116.409 89.1115 116.488 89.5193C116.568 89.9271 116.525 90.3495 116.367 90.7329C116.208 91.1163 115.941 91.4433 115.598 91.6723C115.255 91.9013 114.853 92.0219 114.442 92.0189C113.901 92.0149 113.383 91.7966 112.999 91.4109C112.614 91.0252 112.395 90.5026 112.387 89.9551V89.9396ZM117.141 86.3398C116.952 86.5375 116.726 86.6945 116.475 86.8012C116.225 86.9079 115.956 86.962 115.684 86.9604C115.143 86.9601 114.625 86.7424 114.243 86.3553C114.037 86.1554 113.877 85.9137 113.771 85.6462C113.665 85.3787 113.617 85.0914 113.629 84.8036C113.618 84.5172 113.665 84.2315 113.768 83.9645C113.871 83.6975 114.027 83.4549 114.227 83.2519C114.416 83.0542 114.642 82.8972 114.893 82.7905C115.143 82.6838 115.412 82.6297 115.684 82.6313C115.966 82.6369 116.244 82.7004 116.501 82.8179C116.758 82.9353 116.989 83.1044 117.18 83.3147C117.37 83.525 117.517 83.7723 117.61 84.0415C117.704 84.3108 117.742 84.5964 117.724 84.8812C117.73 85.4312 117.52 85.9612 117.141 86.3553V86.3398ZM118.26 81.6848C117.852 81.6877 117.452 81.5685 117.111 81.3422C116.77 81.1159 116.502 80.7926 116.342 80.4128C116.181 80.033 116.136 79.6138 116.21 79.2077C116.285 78.8017 116.476 78.427 116.76 78.1308C117.045 77.8345 117.409 77.6299 117.808 77.5426C118.207 77.4553 118.622 77.4893 119.002 77.6403C119.382 77.7912 119.71 78.0524 119.943 78.391C120.177 78.7297 120.306 79.1306 120.315 79.5434C120.317 79.8178 120.266 80.0898 120.163 80.3439C120.061 80.598 119.91 80.829 119.719 81.0237C119.528 81.2184 119.301 81.373 119.05 81.4785C118.8 81.5839 118.532 81.6382 118.26 81.6382V81.6848ZM119.441 85.7036C119.055 85.3117 118.835 84.7829 118.828 84.2295C118.828 83.6766 119.044 83.1461 119.429 82.7537C119.814 82.3613 120.336 82.1388 120.883 82.1347C121.153 82.1327 121.42 82.1844 121.67 82.287C121.92 82.3897 122.148 82.5411 122.34 82.7327C122.533 82.9244 122.686 83.1524 122.791 83.4039C122.896 83.6554 122.951 83.9254 122.953 84.1984C122.967 84.4852 122.921 84.7717 122.818 85.0391C122.715 85.3066 122.557 85.5489 122.355 85.7501C122.155 85.9545 121.916 86.1151 121.652 86.2219C121.388 86.3287 121.105 86.3794 120.821 86.3708C120.287 86.3243 119.792 86.0681 119.441 85.657V85.7036ZM122.401 88.419C122.379 88.0001 122.483 87.5843 122.697 87.2255C122.912 86.8666 123.228 86.5813 123.605 86.4064C123.982 86.2315 124.402 86.1751 124.811 86.2445C125.22 86.3139 125.599 86.5059 125.898 86.7957C126.198 87.0854 126.405 87.4596 126.492 87.8696C126.58 88.2797 126.543 88.7068 126.388 89.0957C126.232 89.4846 125.965 89.8173 125.621 90.0508C125.276 90.2842 124.87 90.4077 124.456 90.4051C123.919 90.4053 123.403 90.1926 123.019 89.8127C122.635 89.4328 122.413 88.9158 122.401 88.3724V88.419ZM127.232 83.6554C127.034 83.8629 126.795 84.0255 126.531 84.1325C126.266 84.2396 125.982 84.2885 125.698 84.276C125.157 84.2757 124.639 84.058 124.256 83.6709C124.051 83.471 123.891 83.2293 123.785 82.9618C123.679 82.6943 123.631 82.4071 123.643 82.1192C123.641 81.8449 123.693 81.5728 123.795 81.3188C123.897 81.0647 124.048 80.8337 124.24 80.6389C124.431 80.4442 124.658 80.2897 124.908 80.1842C125.158 80.0787 125.427 80.0245 125.698 80.0245C126.243 80.0285 126.765 80.2483 127.152 80.637C127.539 81.0256 127.76 81.5521 127.768 82.1037C127.781 82.378 127.741 82.6523 127.649 82.9106C127.557 83.1689 127.415 83.4062 127.232 83.6088V83.6554ZM126.925 86.107C126.925 85.6927 127.046 85.2877 127.274 84.9432C127.501 84.5987 127.825 84.3303 128.203 84.1717C128.581 84.0132 128.997 83.9717 129.399 84.0525C129.801 84.1333 130.169 84.3328 130.459 84.6258C130.749 84.9188 130.946 85.292 131.026 85.6983C131.105 86.1047 131.064 86.5259 130.908 86.9086C130.751 87.2914 130.486 87.6186 130.145 87.8487C129.805 88.0789 129.405 88.2018 128.995 88.2018C128.447 88.1977 127.923 87.9757 127.536 87.5837C127.148 87.1918 126.929 86.6613 126.925 86.107ZM127.876 78.9073C127.874 78.6269 127.927 78.349 128.033 78.0899C128.139 77.8309 128.295 77.596 128.493 77.3992C128.69 77.2024 128.924 77.0477 129.182 76.9443C129.439 76.8408 129.715 76.7908 129.992 76.797C130.262 76.796 130.53 76.8489 130.78 76.9527C131.03 77.0566 131.257 77.2093 131.449 77.4021C131.653 77.6026 131.813 77.8444 131.919 78.1118C132.025 78.3792 132.073 78.6661 132.062 78.9538C132.046 79.4971 131.821 80.0125 131.434 80.3895C131.047 80.7666 130.529 80.9753 129.992 80.971C129.718 80.9793 129.446 80.9321 129.19 80.8323C128.935 80.7325 128.702 80.582 128.505 80.3898C128.307 80.1975 128.15 79.9673 128.042 79.7128C127.934 79.4582 127.878 79.1843 127.876 78.9073ZM130.943 82.9571C130.943 82.5448 131.063 82.1417 131.289 81.7983C131.514 81.4549 131.835 81.1865 132.21 81.0267C132.586 80.8668 133 80.8227 133.4 80.8999C133.801 80.977 134.169 81.1719 134.461 81.4602C134.752 81.7485 134.953 82.1174 135.038 82.5207C135.123 82.9239 135.088 83.3435 134.939 83.727C134.789 84.1105 134.531 84.4408 134.196 84.6764C133.862 84.9121 133.466 85.0427 133.059 85.0519C132.787 85.0539 132.516 85.0012 132.264 84.8966C132.012 84.7921 131.783 84.6379 131.591 84.4429C131.398 84.248 131.245 84.0163 131.142 83.7612C131.039 83.5061 130.987 83.2328 130.989 82.9571H130.943ZM136.371 81.0951C135.962 81.0951 135.562 80.9723 135.221 80.7421C134.881 80.5119 134.615 80.1848 134.459 79.802C134.302 79.4192 134.261 78.998 134.341 78.5917C134.421 78.1853 134.618 77.8121 134.908 77.5191C135.197 77.2262 135.566 77.0267 135.968 76.9459C136.369 76.865 136.785 76.9065 137.164 77.0651C137.542 77.2236 137.865 77.4921 138.093 77.8366C138.32 78.1811 138.442 78.5861 138.442 79.0004C138.442 79.5559 138.224 80.0887 137.835 80.4816C137.447 80.8744 136.92 81.0951 136.371 81.0951ZM138.871 76.5953C138.462 76.5953 138.061 76.4724 137.721 76.2422C137.38 76.0121 137.115 75.6849 136.958 75.3021C136.802 74.9194 136.761 74.4982 136.841 74.0919C136.92 73.6855 137.118 73.3123 137.407 73.0193C137.697 72.7263 138.066 72.5268 138.467 72.446C138.869 72.3652 139.285 72.4067 139.663 72.5652C140.042 72.7238 140.365 72.9923 140.592 73.3367C140.82 73.6812 140.941 74.0862 140.941 74.5005C140.945 74.7782 140.895 75.0539 140.793 75.3117C140.69 75.5694 140.539 75.804 140.346 76.0018C140.153 76.1997 139.924 76.3567 139.67 76.4639C139.417 76.5711 139.146 76.6263 138.871 76.6263V76.5953ZM137.108 45.1584C137.108 44.8813 137.161 44.6069 137.266 44.3509C137.371 44.0948 137.525 43.8622 137.718 43.6663C137.912 43.4703 138.142 43.3149 138.395 43.2088C138.648 43.1028 138.919 43.0482 139.193 43.0482C139.709 43.0933 140.19 43.3327 140.541 43.7191C140.891 44.1055 141.085 44.6108 141.085 45.1352C141.085 45.6595 140.891 46.1649 140.541 46.5513C140.19 46.9377 139.709 47.1771 139.193 47.2222C138.926 47.2249 138.662 47.1742 138.414 47.073C138.167 46.9718 137.942 46.8221 137.752 46.6325C137.553 46.4426 137.393 46.2143 137.283 45.9612C137.172 45.7081 137.113 45.4352 137.108 45.1584ZM135.574 39.2931C135.846 39.289 136.117 39.3398 136.37 39.4424C136.623 39.5451 136.853 39.6976 137.047 39.891C137.241 40.0845 137.395 40.3151 137.5 40.5694C137.605 40.8237 137.66 41.0967 137.66 41.3724C137.675 41.6592 137.629 41.946 137.526 42.2136C137.423 42.4812 137.265 42.7234 137.062 42.924C136.679 43.3111 136.161 43.5288 135.62 43.5292C135.334 43.5541 135.046 43.5187 134.775 43.4252C134.503 43.3316 134.254 43.182 134.042 42.9858C133.831 42.7895 133.662 42.551 133.547 42.2853C133.431 42.0196 133.372 41.7325 133.372 41.4422C133.372 41.1519 133.431 40.8648 133.547 40.5991C133.662 40.3334 133.831 40.0948 134.042 39.8986C134.254 39.7024 134.503 39.5527 134.775 39.4592C135.046 39.3657 135.334 39.3302 135.62 39.3552L135.574 39.2931ZM131.893 33.9244C131.882 33.638 131.929 33.3523 132.032 33.0853C132.135 32.8183 132.292 32.5756 132.492 32.3727C132.689 32.1652 132.928 32.0025 133.192 31.8955C133.457 31.7885 133.741 31.7396 134.025 31.752C134.541 31.7971 135.022 32.0365 135.373 32.4229C135.723 32.8093 135.917 33.3146 135.917 33.839C135.917 34.3634 135.723 34.8687 135.373 35.2551C135.022 35.6415 134.541 35.8809 134.025 35.926C133.484 35.9387 132.959 35.7363 132.563 35.3621C132.168 34.9879 131.933 34.4718 131.909 33.9244H131.893ZM133.427 38.3156C133.432 38.8438 133.239 39.3543 132.886 39.7434C132.532 40.1325 132.046 40.3709 131.525 40.4103C131.242 40.4257 130.959 40.3797 130.694 40.2754C130.43 40.171 130.19 40.0107 129.992 39.8052C129.605 39.42 129.385 38.8957 129.378 38.3466C129.376 38.0715 129.428 37.7987 129.53 37.5438C129.632 37.2889 129.783 37.0568 129.974 36.8608C130.165 36.6649 130.392 36.5089 130.642 36.4017C130.893 36.2946 131.162 36.2384 131.433 36.2363C131.705 36.2343 131.973 36.2866 132.225 36.3901C132.476 36.4937 132.704 36.6465 132.896 36.8398C133.089 37.0331 133.242 37.263 133.346 37.5163C133.45 37.7696 133.504 38.0412 133.504 38.3156H133.427ZM127.293 31.5193C127.291 31.2449 127.343 30.9729 127.445 30.7188C127.547 30.4647 127.698 30.2337 127.889 30.039C128.08 29.8443 128.308 29.6897 128.558 29.5843C128.808 29.4788 129.077 29.4245 129.348 29.4245C129.762 29.4069 130.172 29.5165 130.523 29.7387C130.874 29.961 131.151 30.2855 131.317 30.6698C131.483 31.0541 131.53 31.4802 131.452 31.8921C131.375 32.304 131.176 32.6825 130.881 32.9778C130.683 33.1846 130.444 33.3467 130.18 33.4536C129.916 33.5606 129.632 33.6099 129.348 33.5985C128.811 33.5863 128.3 33.3619 127.924 32.9733C127.549 32.5847 127.339 32.0627 127.339 31.5193H127.293ZM124.809 36.0967C124.798 35.8112 124.845 35.5265 124.948 35.2602C125.05 34.9939 125.205 34.7515 125.403 34.548C125.601 34.3446 125.838 34.1843 126.1 34.077C126.362 33.9698 126.643 33.9178 126.925 33.9244C127.339 33.9068 127.749 34.0163 128.1 34.2386C128.451 34.4608 128.728 34.7854 128.894 35.1697C129.06 35.554 129.107 35.98 129.029 36.3919C128.952 36.8038 128.753 37.1823 128.458 37.4777C128.261 37.6852 128.022 37.8478 127.758 37.9548C127.493 38.0619 127.209 38.1108 126.925 38.0983C126.382 38.1151 125.855 37.914 125.459 37.539C125.062 37.164 124.829 36.6455 124.809 36.0967ZM124.318 38.4863C124.834 38.5314 125.315 38.7707 125.665 39.1572C126.016 39.5436 126.21 40.0489 126.21 40.5733C126.21 41.0976 126.016 41.6029 125.665 41.9894C125.315 42.3758 124.834 42.6152 124.318 42.6602C123.801 42.6152 123.321 42.3758 122.97 41.9894C122.62 41.6029 122.426 41.0976 122.426 40.5733C122.426 40.0489 122.62 39.5436 122.97 39.1572C123.321 38.7707 123.801 38.5314 124.318 38.4863ZM120.499 36.0501C120.295 35.8497 120.135 35.6079 120.029 35.3405C119.923 35.0731 119.875 34.7862 119.886 34.4985C119.886 33.9456 120.102 33.4151 120.487 33.0227C120.872 32.6303 121.394 32.4078 121.941 32.4037C122.457 32.4488 122.938 32.6882 123.288 33.0746C123.639 33.461 123.833 33.9663 123.833 34.4907C123.833 35.0151 123.639 35.5204 123.288 35.9068C122.938 36.2932 122.457 36.5326 121.941 36.5777C121.4 36.5773 120.882 36.3597 120.499 35.9726V36.0501ZM117.938 37.819C118.136 37.6115 118.375 37.4489 118.639 37.3419C118.904 37.2349 119.187 37.1859 119.472 37.1984C119.758 37.1734 120.045 37.2088 120.317 37.3024C120.589 37.3959 120.838 37.5456 121.049 37.7418C121.261 37.938 121.43 38.1766 121.545 38.4423C121.661 38.708 121.72 38.9951 121.72 39.2854C121.72 39.5756 121.661 39.8627 121.545 40.1285C121.43 40.3942 121.261 40.6327 121.049 40.829C120.838 41.0252 120.589 41.1748 120.317 41.2684C120.045 41.3619 119.758 41.3973 119.472 41.3724C119.058 41.3899 118.648 41.2804 118.297 41.0582C117.945 40.8359 117.668 40.5113 117.503 40.127C117.337 39.7427 117.29 39.3167 117.367 38.9048C117.445 38.4929 117.644 38.1144 117.938 37.819ZM116.85 31.8606C117.395 31.8646 117.917 32.0845 118.304 32.4731C118.691 32.8618 118.912 33.3883 118.92 33.9399C118.921 34.2133 118.868 34.4842 118.766 34.7372C118.663 34.9901 118.512 35.2201 118.322 35.414C118.124 35.6215 117.885 35.7841 117.621 35.8911C117.357 35.9981 117.073 36.047 116.788 36.0346C116.247 36.0342 115.729 35.8166 115.347 35.4295C115.142 35.2296 114.981 34.9879 114.875 34.7204C114.769 34.4529 114.721 34.1657 114.733 33.8778C114.735 33.5994 114.792 33.3241 114.899 33.0678C115.007 32.8115 115.164 32.5793 115.36 32.3846C115.557 32.1899 115.79 32.0365 116.046 31.9332C116.301 31.83 116.574 31.7789 116.85 31.783V31.8606ZM112.249 28.8349C112.249 28.4206 112.37 28.0156 112.598 27.6711C112.825 27.3266 113.149 27.0581 113.527 26.8996C113.905 26.741 114.321 26.6995 114.723 26.7804C115.125 26.8612 115.494 27.0607 115.783 27.3537C116.073 27.6466 116.27 28.0199 116.35 28.4262C116.43 28.8325 116.389 29.2537 116.232 29.6365C116.075 30.0193 115.81 30.3464 115.469 30.5766C115.129 30.8068 114.729 30.9296 114.319 30.9296C114.035 30.9407 113.752 30.8919 113.487 30.7864C113.223 30.681 112.982 30.5211 112.782 30.3169C112.582 30.1127 112.425 29.8687 112.323 29.6002C112.221 29.3318 112.175 29.0447 112.188 28.7573L112.249 28.8349ZM111.589 32.0158C112.137 31.9685 112.68 32.143 113.1 32.5009C113.519 32.8588 113.782 33.3709 113.828 33.9244C113.852 34.1976 113.821 34.4727 113.739 34.734C113.656 34.9952 113.523 35.2373 113.348 35.4465C113.173 35.6556 112.958 35.8276 112.717 35.9525C112.476 36.0774 112.212 36.1528 111.942 36.1743H111.774C111.266 36.139 110.789 35.9161 110.434 35.5479C110.079 35.1798 109.87 34.6922 109.847 34.1781C109.824 33.6641 109.989 33.1596 110.311 32.7608C110.632 32.362 111.087 32.0968 111.589 32.0158ZM107.158 29.3469C107.158 28.9307 107.28 28.5239 107.51 28.1784C107.74 27.833 108.066 27.5647 108.447 27.4076C108.828 27.2505 109.246 27.2118 109.649 27.2965C110.052 27.3812 110.42 27.5853 110.708 27.883C110.996 28.1806 111.189 28.5582 111.264 28.9675C111.338 29.3769 111.291 29.7995 111.127 30.1813C110.963 30.5632 110.691 30.887 110.344 31.1115C109.998 31.336 109.593 31.4509 109.182 31.4417C108.633 31.4417 108.106 31.221 107.718 30.8281C107.33 30.4353 107.112 29.9025 107.112 29.3469H107.158ZM105.455 36.7794C105.041 36.4187 104.782 35.9076 104.737 35.3561C104.691 34.8047 104.861 34.2571 105.21 33.8313C105.384 33.6222 105.597 33.4499 105.837 33.3242C106.077 33.1986 106.339 33.122 106.608 33.099C106.877 33.0759 107.149 33.1068 107.406 33.1898C107.663 33.2729 107.902 33.4065 108.108 33.583C108.319 33.7559 108.493 33.9701 108.619 34.2128C108.746 34.4555 108.822 34.7216 108.844 34.995C108.887 35.5476 108.713 36.095 108.36 36.5189C108.007 36.9428 107.504 37.2091 106.958 37.2604H106.774C106.293 37.2564 105.828 37.0867 105.455 36.7794ZM104.551 39.4948C105.067 39.5399 105.548 39.7793 105.898 40.1657C106.248 40.5521 106.443 41.0575 106.443 41.5818C106.443 42.1062 106.248 42.6115 105.898 42.9979C105.548 43.3844 105.067 43.6237 104.551 43.6688C104.01 43.6685 103.491 43.4508 103.109 43.0637C102.904 42.8638 102.743 42.6221 102.637 42.3546C102.532 42.0871 102.483 41.7999 102.496 41.512C102.514 40.9857 102.728 40.4859 103.095 40.1121C103.462 39.7383 103.954 39.5179 104.474 39.4948H104.551ZM101.836 35.0726C102.39 35.0212 102.942 35.1942 103.37 35.5536C103.784 35.9102 104.043 36.4174 104.09 36.9656C104.141 37.5261 103.97 38.0841 103.615 38.5173C103.442 38.7261 103.229 38.8981 102.99 39.0233C102.75 39.1485 102.488 39.2244 102.22 39.2466H102.036C101.513 39.2312 101.016 39.0164 100.643 38.6453C100.271 38.2743 100.051 37.7744 100.028 37.2461C100.004 36.7177 100.179 36.2 100.518 35.7969C100.856 35.3937 101.332 35.135 101.852 35.0726H101.836ZM97.481 32.714C97.481 32.2997 97.6024 31.8947 97.8299 31.5503C98.0573 31.2058 98.3807 30.9373 98.759 30.7787C99.1373 30.6202 99.5535 30.5787 99.9551 30.6595C100.357 30.7404 100.726 30.9399 101.015 31.2328C101.305 31.5258 101.502 31.899 101.582 32.3054C101.662 32.7117 101.621 33.1329 101.464 33.5157C101.307 33.8984 101.042 34.2256 100.701 34.4558C100.361 34.6859 99.9607 34.8088 99.5512 34.8088C99.2724 34.8215 98.994 34.7765 98.7329 34.6767C98.4719 34.5769 98.2336 34.4244 98.0327 34.2284C97.8318 34.0324 97.6725 33.797 97.5645 33.5367C97.4564 33.2763 97.4019 32.9964 97.4043 32.714H97.481ZM96.2541 41.481C95.8399 41.1244 95.581 40.6172 95.5334 40.069C95.501 39.7911 95.5266 39.5094 95.6085 39.2421C95.6904 38.9749 95.8267 38.7279 96.0088 38.5173C96.1822 38.3084 96.3948 38.1365 96.6344 38.0113C96.8739 37.8861 97.1356 37.8102 97.4043 37.788C97.6751 37.7625 97.9483 37.7913 98.2082 37.8726C98.4681 37.954 98.7096 38.0863 98.9189 38.2621C99.1282 38.4379 99.3013 38.6537 99.4282 38.8972C99.5551 39.1406 99.6334 39.407 99.6586 39.681C99.6838 39.9551 99.6553 40.2315 99.5749 40.4945C99.4945 40.7574 99.3637 41.0018 99.19 41.2136C99.0163 41.4254 98.803 41.6005 98.5624 41.7289C98.3218 41.8573 98.0585 41.9365 97.7877 41.962H97.6036C97.1123 41.9651 96.6351 41.795 96.2541 41.481ZM93.5551 41.2327C94.0981 41.1854 94.6374 41.3583 95.0544 41.7133C95.4714 42.0683 95.7319 42.5764 95.7787 43.1258C95.8151 43.4038 95.7914 43.6865 95.7093 43.9544C95.6272 44.2223 95.4887 44.4689 95.3033 44.6774C95.1324 44.8904 94.9207 45.0662 94.6809 45.1942C94.441 45.3222 94.1781 45.3998 93.9078 45.4222H93.7238C93.1788 45.4449 92.6472 45.2475 92.246 44.8736C91.8448 44.4996 91.6069 43.9798 91.5845 43.4283C91.5621 42.8769 91.7572 42.339 92.1267 41.9331C92.4963 41.5272 93.0101 41.2864 93.5551 41.2638V41.2327ZM89.7826 40.3793C89.5731 40.2055 89.3999 39.9912 89.2732 39.749C89.1464 39.5067 89.0687 39.2413 89.0444 38.9683C89.0201 38.6953 89.0498 38.4201 89.1318 38.1588C89.2138 37.8976 89.3464 37.6555 89.5219 37.4466C89.8795 37.0234 90.3851 36.7565 90.9328 36.7018C91.4762 36.6613 92.0134 36.8392 92.4281 37.1968C92.8427 37.5545 93.1013 38.0632 93.1477 38.6125C93.1941 39.1618 93.0246 39.7075 92.676 40.1312C92.3274 40.5549 91.8278 40.8224 91.2855 40.8758H91.1014C90.6223 40.8729 90.16 40.6968 89.7979 40.3793H89.7826ZM88.5865 47.5635C88.5612 47.2903 88.5896 47.0146 88.6701 46.7526C88.7506 46.4905 88.8816 46.2471 89.0556 46.0365C89.2295 45.8259 89.4429 45.6522 89.6835 45.5255C89.9241 45.3988 90.1871 45.3215 90.4574 45.2981C91.0024 45.2508 91.5436 45.4244 91.9621 45.7809C92.3805 46.1374 92.6419 46.6474 92.6887 47.1989C92.7354 47.7503 92.5638 48.298 92.2115 48.7214C91.8592 49.1448 91.3551 49.4092 90.8101 49.4566H90.6414C90.1278 49.4551 89.6331 49.2606 89.2534 48.9108C88.8736 48.5609 88.6359 48.0808 88.5865 47.5635ZM87.9424 49.86C88.4783 49.8336 89.0036 50.0172 89.4092 50.3727C89.8148 50.7281 90.0693 51.2281 90.12 51.7686C90.1431 52.0418 90.1125 52.3169 90.0301 52.5782C89.9476 52.8394 89.8149 53.0815 89.6396 53.2907C89.4643 53.4998 89.2498 53.6718 89.0085 53.7967C88.7672 53.9216 88.5039 53.997 88.2337 54.0185H88.0651C87.5426 54.0031 87.0452 53.7883 86.6728 53.4172C86.3003 53.0462 86.0804 52.5463 86.0571 52.018C86.0338 51.4896 86.2089 50.9719 86.5472 50.5688C86.8855 50.1656 87.362 49.9069 87.881 49.8445L87.9424 49.86ZM84.1545 60.4424C84.538 60.0552 85.0544 59.8328 85.5961 59.8217C86.1472 59.832 86.6717 60.0634 87.0542 60.465C87.4367 60.8665 87.6458 61.4054 87.6357 61.963C87.6255 62.5206 87.3968 63.0513 86.9999 63.4384C86.6031 63.8254 86.0705 64.037 85.5194 64.0267C85.236 64.0412 84.9529 63.9947 84.6885 63.8904C84.4242 63.7861 84.1847 63.6263 83.9858 63.4216C83.6033 63.0349 83.3881 62.5102 83.3878 61.963C83.3886 61.6743 83.4506 61.3892 83.5696 61.1269C83.6887 60.8646 83.862 60.6311 84.0779 60.4424H84.1545ZM86.4395 58.8907C85.9249 58.8928 85.4283 58.6995 85.0478 58.349C84.6673 57.9985 84.4306 57.5162 84.3846 56.9977C84.3338 56.4372 84.5047 55.8792 84.86 55.446C85.0787 55.1803 85.359 54.9735 85.6759 54.844C85.9928 54.7146 86.3365 54.6666 86.6762 54.7042C87.0159 54.7418 87.3412 54.864 87.6229 55.0598C87.9046 55.2556 88.1341 55.5189 88.2907 55.8262C88.4474 56.1335 88.5265 56.4753 88.5208 56.8211C88.5152 57.1668 88.425 57.5058 88.2584 57.8077C88.0918 58.1097 87.8539 58.3651 87.566 58.5514C87.278 58.7377 86.949 58.8489 86.6082 58.8752L86.4395 58.8907ZM83.4644 67.1301C83.4584 66.7139 83.575 66.3052 83.7994 65.9564C84.0238 65.6075 84.3459 65.3342 84.7245 65.1713C85.1032 65.0085 85.5211 64.9634 85.9252 65.042C86.3292 65.1205 86.7009 65.3191 86.9929 65.6124C87.2849 65.9056 87.4839 66.2802 87.5646 66.6884C87.6452 67.0966 87.6039 67.5199 87.4458 67.9042C87.2876 68.2885 87.02 68.6164 86.6769 68.8461C86.3337 69.0758 85.9308 69.1968 85.5194 69.1938C84.977 69.1938 84.4567 68.9769 84.0717 68.5903C83.6868 68.2037 83.4685 67.6788 83.4644 67.1301ZM84.3539 72.0489C84.4024 71.4966 84.6608 70.9848 85.0747 70.6213C85.3873 70.3579 85.7697 70.1935 86.1741 70.1487C86.5785 70.1039 86.987 70.1806 87.3486 70.3694C87.7101 70.5581 88.0087 70.8504 88.2071 71.2098C88.4054 71.5692 88.4947 71.9798 88.4638 72.3902C88.4153 72.9426 88.1569 73.4543 87.743 73.8178C87.3675 74.1329 86.8966 74.3082 86.4088 74.3143H86.2401C85.9671 74.293 85.7011 74.2166 85.4576 74.0897C85.2142 73.9629 84.9983 73.7881 84.8225 73.5756C84.6468 73.3631 84.5148 73.1172 84.4343 72.8523C84.3539 72.5875 84.3265 72.3091 84.3539 72.0334V72.0489ZM83.5411 48.6497C83.2249 48.3859 82.9939 48.0325 82.8777 47.6348C82.7615 47.2372 82.7655 46.8134 82.8892 46.4181C83.0128 46.0227 83.2505 45.6738 83.5716 45.4162C83.8927 45.1585 84.2826 45.0039 84.6913 44.9722C84.966 44.9385 85.2446 44.964 85.5089 45.0469C85.7732 45.1298 86.0171 45.2682 86.2248 45.4533C86.5338 45.7206 86.7581 46.0741 86.8699 46.4696C86.9816 46.8651 86.9758 47.2851 86.8531 47.6773C86.7305 48.0695 86.4964 48.4165 86.1801 48.6749C85.8639 48.9334 85.4794 49.0919 85.0747 49.1307H84.8906C84.3962 49.1362 83.9166 48.9597 83.5411 48.6342V48.6497ZM80.5967 51.9703C80.5681 51.6925 80.5955 51.4118 80.6772 51.1451C80.7589 50.8784 80.8933 50.6312 81.0721 50.4186C81.243 50.2056 81.4548 50.0298 81.6946 49.9018C81.9344 49.7738 82.1974 49.6962 82.4676 49.6738C82.7409 49.6505 83.016 49.6824 83.277 49.7675C83.538 49.8527 83.7796 49.9895 83.9879 50.1699C84.1962 50.3504 84.367 50.5709 84.4904 50.8187C84.6138 51.0665 84.6873 51.3366 84.7066 51.6134C84.7534 52.1628 84.5825 52.7084 84.2317 53.1304C83.8808 53.5523 83.3787 53.816 82.8357 53.8633H82.6517C82.1357 53.8615 81.639 53.6648 81.2588 53.3118C80.8787 52.9587 80.6426 52.4748 80.5967 51.9548V51.9703ZM80.4434 64.0267C80.1576 64.0517 79.8697 64.0163 79.5982 63.9227C79.3266 63.8292 79.0772 63.6796 78.8658 63.4833C78.6544 63.2871 78.4856 63.0486 78.3702 62.7828C78.2547 62.5171 78.1951 62.23 78.1951 61.9397C78.1951 61.6495 78.2547 61.3624 78.3702 61.0967C78.4856 60.8309 78.6544 60.5924 78.8658 60.3962C79.0772 60.1999 79.3266 60.0503 79.5982 59.9568C79.8697 59.8632 80.1576 59.8278 80.4434 59.8528C80.9751 59.8647 81.4815 60.0849 81.8562 60.4668C82.2308 60.8488 82.4445 61.3629 82.4523 61.901C82.4675 62.1878 82.4221 62.4746 82.3189 62.7422C82.2158 63.0098 82.0574 63.252 81.8542 63.4526C81.472 63.8397 80.9535 64.0574 80.4127 64.0578L80.4434 64.0267ZM84.0625 78.9228C83.6964 79.2438 83.2281 79.4201 82.7437 79.4193H82.5597C82.2895 79.3978 82.0262 79.3224 81.7849 79.1975C81.5436 79.0726 81.3291 78.9006 81.1538 78.6915C80.9785 78.4824 80.8458 78.2402 80.7633 77.979C80.6809 77.7178 80.6503 77.4426 80.6734 77.1694C80.6956 76.8959 80.7722 76.6299 80.8987 76.3872C81.0252 76.1445 81.199 75.9303 81.4095 75.7574C81.8361 75.3939 82.3872 75.2154 82.943 75.2608C83.4873 75.3121 83.9895 75.579 84.34 76.0034C84.6905 76.4278 84.8608 76.9752 84.814 77.5263C84.7839 77.7928 84.7021 78.0506 84.5731 78.285C84.4442 78.5194 84.2706 78.7256 84.0625 78.8917V78.9228ZM86.9762 82.1813C86.9306 82.7028 86.695 83.1885 86.3153 83.5441C85.9355 83.8996 85.4387 84.0997 84.9213 84.1054H84.7526C84.3551 84.0564 83.9804 83.891 83.6746 83.6296C83.3687 83.3681 83.145 83.0219 83.031 82.6335C82.9169 82.2451 82.9175 81.8315 83.0327 81.4434C83.1478 81.0554 83.3725 80.7098 83.6791 80.4492C83.9857 80.1887 84.3609 80.0244 84.7585 79.9766C85.1561 79.9288 85.5589 79.9996 85.9173 80.1803C86.2757 80.361 86.5741 80.6437 86.7758 80.9937C86.9776 81.3437 87.0739 81.7456 87.0529 82.1502L86.9762 82.1813ZM89.4606 78.7055C89.0898 79.0288 88.6158 79.2052 88.1264 79.2021H87.9577C87.4136 79.1546 86.91 78.8915 86.5567 78.4701C86.2034 78.0487 86.029 77.5031 86.0715 76.9522C86.1072 76.5414 86.2619 76.1504 86.5164 75.8282C86.7708 75.506 87.1135 75.267 87.5016 75.1411C87.8897 75.0151 88.3059 75.0079 88.698 75.1203C89.0901 75.2327 89.4408 75.4597 89.7059 75.7729C90.0612 76.206 90.2321 76.764 90.1813 77.3246C90.1246 77.8525 89.8659 78.3371 89.4606 78.6745V78.7055ZM90.488 83.7019C89.8783 83.6775 89.3023 83.4122 88.8837 82.9629C88.4652 82.5135 88.2375 81.916 88.2495 81.2987C88.2616 80.6813 88.5124 80.0934 88.9481 79.6611C89.3839 79.2288 89.9698 78.9867 90.58 78.9867C91.1903 78.9867 91.7762 79.2288 92.2119 79.6611C92.6477 80.0934 92.8985 80.6813 92.9106 81.2987C92.9226 81.916 92.6949 82.5135 92.2764 82.9629C91.8578 83.4122 91.2818 83.6775 90.6721 83.7019H90.488ZM92.7577 88.8535C92.9382 89.0597 93.0761 89.3005 93.1632 89.5615C93.2503 89.8225 93.2849 90.0986 93.2649 90.3734C93.2449 90.6481 93.1707 90.9161 93.0467 91.1614C92.9227 91.4067 92.7514 91.6244 92.543 91.8016C92.1737 92.1293 91.6999 92.3111 91.2088 92.3137H91.0554C90.5087 92.2739 89.9998 92.0164 89.6404 91.5975C89.2811 91.1786 89.1006 90.6326 89.1385 90.0793C89.187 89.527 89.4454 89.0152 89.8593 88.6517C90.0637 88.4734 90.3008 88.3376 90.5571 88.252C90.8134 88.1664 91.0838 88.1328 91.3529 88.1529C91.6221 88.1731 91.8847 88.2467 92.1257 88.3696C92.3667 88.4924 92.5815 88.6621 92.7577 88.869V88.8535ZM95.9321 85.7501C95.8933 86.2742 95.6598 86.7641 95.2786 87.121C94.8973 87.478 94.3966 87.6757 93.8772 87.6742H93.7085C93.3021 87.6421 92.9144 87.4885 92.5945 87.2329C92.2747 86.9772 92.0372 86.6311 91.9123 86.2386C91.7874 85.8461 91.7806 85.4248 91.8929 85.0284C92.0052 84.6319 92.2315 84.2782 92.543 84.0123C92.7514 83.8278 92.9951 83.6885 93.2589 83.6031C93.5226 83.5177 93.8009 83.4879 94.0765 83.5157C94.6138 83.567 95.1096 83.8301 95.4568 84.2482C95.804 84.6662 95.9747 85.2057 95.9321 85.7501ZM97.5883 91.1034C97.0742 91.0435 96.5995 90.7951 96.2541 90.4051C95.9048 89.9793 95.7348 89.4317 95.7807 88.8802C95.8266 88.3288 96.0847 87.8177 96.4995 87.457C96.8099 87.1857 97.1934 87.0146 97.6006 86.9657C98.0079 86.9168 98.4203 86.9923 98.7848 87.1826C99.1493 87.3728 99.4492 87.6691 99.6459 88.0332C99.8426 88.3974 99.9271 88.8127 99.8886 89.2259C99.8458 89.7567 99.6047 90.2512 99.2145 90.6086C98.8242 90.966 98.314 91.1596 97.7877 91.1499L97.5883 91.1034ZM101.1 94.8429C101.284 95.0536 101.423 95.2997 101.51 95.5663C101.597 95.833 101.63 96.1148 101.606 96.3946C101.562 96.9483 101.303 97.4618 100.885 97.8221C100.52 98.1561 100.044 98.3389 99.5512 98.3342H99.3212C98.7794 98.286 98.2781 98.024 97.9257 97.6049C97.7421 97.3942 97.6027 97.1481 97.5157 96.8814C97.4287 96.6148 97.396 96.333 97.4196 96.0532C97.4387 95.7784 97.5124 95.5104 97.6362 95.2651C97.7601 95.0198 97.9315 94.8024 98.1404 94.6257C98.3486 94.44 98.5918 94.2988 98.8554 94.2108C99.1189 94.1228 99.3974 94.0898 99.6739 94.1136C99.9516 94.1367 100.222 94.2175 100.467 94.351C100.712 94.4845 100.928 94.6678 101.1 94.8895V94.8429ZM103.416 93.2912C103.044 93.6121 102.571 93.7881 102.082 93.7878H101.913C101.507 93.7516 101.12 93.595 100.802 93.3376C100.484 93.0802 100.247 92.7334 100.123 92.3407C99.9985 91.948 99.9914 91.5269 100.102 91.1302C100.214 90.7334 100.438 90.3786 100.747 90.1103C100.939 89.8832 101.177 89.7006 101.445 89.575C101.713 89.4494 102.005 89.3837 102.3 89.3824C102.596 89.3811 102.888 89.4443 103.157 89.5676C103.426 89.6909 103.666 89.8714 103.86 90.0969C104.053 90.3224 104.197 90.5875 104.28 90.8741C104.364 91.1608 104.385 91.4623 104.343 91.7581C104.301 92.0539 104.196 92.337 104.036 92.5882C103.876 92.8394 103.665 93.0527 103.416 93.2136V93.2912ZM106.375 98.4738C106.358 98.7474 106.287 99.0148 106.166 99.26C106.045 99.5052 105.876 99.7233 105.67 99.9014C105.294 100.226 104.815 100.402 104.321 100.398H104.167C103.762 100.366 103.376 100.214 103.057 99.9602C102.737 99.7066 102.5 99.3629 102.373 98.9726C102.247 98.5823 102.237 98.1629 102.346 97.7672C102.455 97.3715 102.677 97.0173 102.985 96.7493C103.293 96.4812 103.672 96.3114 104.075 96.2612C104.477 96.211 104.886 96.2826 105.249 96.4671C105.611 96.6516 105.912 96.9406 106.113 97.2978C106.313 97.6549 106.405 98.0641 106.375 98.4738ZM108.921 93.8188C108.875 94.3388 108.639 94.8228 108.259 95.1758C107.879 95.5289 107.382 95.7256 106.866 95.7274H106.698C106.159 95.6798 105.66 95.4211 105.308 95.0065C104.955 94.5919 104.777 94.0543 104.811 93.5085C104.832 93.2362 104.906 92.9708 105.03 92.7282C105.153 92.4856 105.324 92.2708 105.532 92.0964C105.845 91.833 106.227 91.6686 106.631 91.6238C107.036 91.579 107.444 91.6558 107.806 91.8445C108.168 92.0332 108.466 92.3255 108.664 92.6849C108.863 93.0443 108.952 93.4549 108.921 93.8654V93.8188ZM109.397 91.212C108.986 91.2151 108.585 91.0948 108.242 90.8665C107.9 90.6382 107.632 90.3122 107.473 89.9297C107.314 89.5472 107.271 89.1255 107.349 88.7182C107.427 88.3108 107.623 87.9361 107.912 87.6416C108.201 87.3471 108.57 87.146 108.972 87.0639C109.374 86.9819 109.791 87.0224 110.17 87.1805C110.549 87.3386 110.873 87.6071 111.101 87.9519C111.33 88.2967 111.451 88.7023 111.451 89.1172C111.456 89.3944 111.406 89.6696 111.305 89.9272C111.203 90.1848 111.053 90.4197 110.862 90.6186C110.672 90.8174 110.444 90.9763 110.192 91.0861C109.941 91.1959 109.67 91.2545 109.397 91.2586V91.212ZM113.215 96.3635C112.84 96.6786 112.369 96.8539 111.881 96.8601H111.712C111.442 96.8386 111.179 96.7632 110.937 96.6383C110.696 96.5134 110.482 96.3414 110.306 96.1323C110.131 95.9232 109.998 95.681 109.916 95.4198C109.833 95.1585 109.803 94.8834 109.826 94.6102C109.874 94.0578 110.133 93.5461 110.547 93.1826C110.866 92.9093 111.26 92.7402 111.676 92.6976C112.092 92.6551 112.511 92.7412 112.878 92.9444C113.245 93.1477 113.542 93.4586 113.731 93.8363C113.92 94.214 113.991 94.6407 113.936 95.0601C113.869 95.5848 113.612 96.0656 113.215 96.4101V96.3635ZM116.374 100.072C116.377 100.488 116.258 100.895 116.032 101.242C115.805 101.588 115.482 101.859 115.103 102.02C114.724 102.18 114.307 102.223 113.904 102.143C113.501 102.062 113.13 101.863 112.84 101.569C112.55 101.275 112.352 100.9 112.273 100.492C112.193 100.085 112.236 99.6621 112.394 99.2787C112.553 98.8953 112.82 98.5683 113.163 98.3393C113.506 98.1104 113.908 97.9897 114.319 97.9928C114.593 97.9927 114.864 98.048 115.116 98.1554C115.369 98.2628 115.597 98.4201 115.789 98.6182C115.98 98.8162 116.131 99.0509 116.231 99.3086C116.332 99.5662 116.38 99.8416 116.374 100.119V100.072ZM119.058 95.0601C119.058 95.4744 118.936 95.8794 118.709 96.2239C118.481 96.5684 118.158 96.8369 117.78 96.9954C117.401 97.154 116.985 97.1955 116.584 97.1146C116.182 97.0338 115.813 96.8343 115.524 96.5414C115.234 96.2484 115.037 95.8752 114.957 95.4688C114.877 95.0625 114.918 94.6413 115.075 94.2585C115.232 93.8757 115.497 93.5486 115.837 93.3184C116.178 93.0882 116.578 92.9654 116.988 92.9654C117.537 92.9654 118.063 93.1861 118.451 93.5789C118.84 93.9718 119.058 94.5046 119.058 95.0601ZM119.533 91.7706C119.123 91.7706 118.722 91.6473 118.381 91.4165C118.041 91.1856 117.775 90.8575 117.619 90.4739C117.463 90.0902 117.423 89.6682 117.504 89.2614C117.585 88.8547 117.784 88.4815 118.075 88.1891C118.366 87.8968 118.736 87.6985 119.139 87.6195C119.541 87.5404 119.958 87.5841 120.336 87.745C120.714 87.906 121.036 88.1769 121.262 88.5234C121.488 88.8699 121.607 89.2764 121.603 89.6914C121.603 89.9657 121.55 90.2374 121.446 90.4907C121.341 90.7439 121.189 90.9738 120.996 91.1671C120.804 91.3604 120.575 91.5132 120.324 91.6168C120.073 91.7204 119.804 91.7726 119.533 91.7706ZM122.079 96.4256C121.669 96.4256 121.268 96.3023 120.927 96.0715C120.586 95.8406 120.321 95.5125 120.165 95.1289C120.009 94.7452 119.968 94.3232 120.05 93.9165C120.131 93.5097 120.329 93.1365 120.62 92.8441C120.912 92.5518 121.282 92.3535 121.684 92.2745C122.087 92.1954 122.504 92.2391 122.882 92.4C123.26 92.561 123.582 92.8319 123.808 93.1784C124.033 93.5249 124.152 93.9314 124.149 94.3464C124.151 94.622 124.099 94.8953 123.996 95.1504C123.892 95.4055 123.74 95.6373 123.547 95.8322C123.355 96.0271 123.126 96.1813 122.874 96.2859C122.621 96.3904 122.351 96.4432 122.079 96.4411V96.4256ZM126.679 99.0169C126.683 99.4325 126.563 99.8396 126.337 100.186C126.111 100.533 125.787 100.804 125.409 100.965C125.03 101.125 124.612 101.168 124.209 101.088C123.806 101.007 123.436 100.807 123.145 100.514C122.855 100.22 122.657 99.845 122.578 99.4372C122.499 99.0295 122.541 98.607 122.7 98.2236C122.858 97.8402 123.126 97.5132 123.469 97.2842C123.811 97.0552 124.214 96.9346 124.625 96.9377C125.166 96.9498 125.68 97.1759 126.059 97.5674C126.437 97.959 126.649 98.4848 126.649 99.0324L126.679 99.0169ZM127.032 94.9515C126.623 94.9515 126.222 94.8287 125.882 94.5985C125.542 94.3683 125.276 94.0412 125.12 93.6584C124.963 93.2756 124.922 92.8544 125.002 92.4481C125.082 92.0418 125.279 91.6685 125.568 91.3755C125.858 91.0826 126.227 90.8831 126.628 90.8023C127.03 90.7214 127.446 90.7629 127.824 90.9215C128.203 91.08 128.526 91.3485 128.754 91.693C128.981 92.0375 129.102 92.4425 129.102 92.8568C129.105 93.1358 129.051 93.4124 128.946 93.6704C128.841 93.9284 128.686 94.1626 128.491 94.3591C128.295 94.5557 128.063 94.7108 127.807 94.8151C127.551 94.9195 127.277 94.9712 127.002 94.967L127.032 94.9515ZM131.633 97.3101C131.636 97.7257 131.517 98.1328 131.29 98.4796C131.064 98.8265 130.741 99.0974 130.362 99.2579C129.983 99.4183 129.565 99.4611 129.162 99.3808C128.759 99.3004 128.389 99.1006 128.099 98.8067C127.808 98.5129 127.611 98.1382 127.531 97.7304C127.452 97.3226 127.494 96.9002 127.653 96.5168C127.811 96.1334 128.079 95.8064 128.422 95.5774C128.765 95.3484 129.167 95.2278 129.578 95.2308C130.107 95.2588 130.604 95.4923 130.967 95.8825C131.33 96.2728 131.53 96.7898 131.525 97.3256L131.633 97.3101ZM133.657 90.4982C133.663 90.9111 133.548 91.3166 133.327 91.6636C133.106 92.0106 132.788 92.2838 132.414 92.4487C132.04 92.6137 131.626 92.663 131.224 92.5907C130.822 92.5183 130.451 92.3273 130.156 92.0419C129.861 91.7564 129.656 91.3891 129.567 90.9861C129.478 90.5832 129.508 90.1625 129.654 89.7771C129.801 89.3916 130.056 89.0585 130.389 88.8196C130.722 88.5808 131.118 88.4468 131.525 88.4345C132.072 88.4345 132.596 88.6531 132.984 89.0425C133.372 89.432 133.592 89.9609 133.596 90.5137L133.657 90.4982ZM135.743 89.4897C135.333 89.4897 134.933 89.3668 134.592 89.1366C134.252 88.9064 133.987 88.5793 133.83 88.1965C133.673 87.8138 133.632 87.3926 133.712 86.9862C133.792 86.5799 133.989 86.2066 134.279 85.9137C134.568 85.6207 134.937 85.4212 135.339 85.3404C135.74 85.2596 136.157 85.301 136.535 85.4596C136.913 85.6181 137.237 85.8866 137.464 86.2311C137.692 86.5756 137.813 86.9806 137.813 87.3949C137.815 87.6766 137.761 87.9558 137.654 88.2159C137.547 88.476 137.39 88.7116 137.191 88.9086C136.992 89.1056 136.755 89.26 136.496 89.3625C136.237 89.465 135.96 89.5135 135.681 89.5052L135.743 89.4897ZM140.343 91.8947C140.346 92.3103 140.227 92.7175 140.001 93.0643C139.774 93.4112 139.451 93.6821 139.072 93.8425C138.693 94.003 138.276 94.0458 137.873 93.9655C137.47 93.8851 137.1 93.6853 136.809 93.3914C136.519 93.0975 136.321 92.7228 136.242 92.3151C136.162 91.9073 136.205 91.4848 136.363 91.1014C136.522 90.718 136.79 90.391 137.132 90.1621C137.475 89.9331 137.878 89.8124 138.288 89.8155C138.562 89.8195 138.831 89.8782 139.082 89.9882C139.333 90.0982 139.559 90.2573 139.749 90.4564C139.938 90.6554 140.087 90.8905 140.187 91.148C140.286 91.4055 140.334 91.6804 140.328 91.9568L140.343 91.8947ZM141.294 83.6398C141.3 84.0541 141.185 84.4608 140.962 84.8086C140.74 85.1565 140.42 85.4297 140.044 85.5939C139.668 85.7581 139.253 85.8058 138.85 85.731C138.447 85.6562 138.076 85.4622 137.782 85.1736C137.488 84.8851 137.286 84.5148 137.2 84.1098C137.114 83.7047 137.149 83.2829 137.3 82.8979C137.451 82.5128 137.711 82.1817 138.048 81.9464C138.385 81.7112 138.784 81.5823 139.193 81.5761C139.466 81.572 139.736 81.6228 139.989 81.7254C140.242 81.8281 140.472 81.9806 140.666 82.174C140.86 82.3675 141.014 82.5981 141.119 82.8524C141.225 83.1068 141.279 83.3797 141.279 83.6554L141.294 83.6398ZM142.122 81.452C141.712 81.452 141.311 81.3287 140.97 81.0979C140.63 80.867 140.364 80.5389 140.208 80.1552C140.052 79.7716 140.012 79.3496 140.093 78.9428C140.174 78.5361 140.373 78.1629 140.664 77.8705C140.955 77.5782 141.325 77.3799 141.728 77.3009C142.13 77.2218 142.547 77.2655 142.925 77.4264C143.303 77.5874 143.625 77.8583 143.851 78.2048C144.077 78.5513 144.195 78.9578 144.192 79.3728C144.195 79.6497 144.142 79.9244 144.038 80.1805C143.933 80.4366 143.78 80.669 143.585 80.8642C143.391 81.0593 143.16 81.2132 142.906 81.3168C142.652 81.4204 142.381 81.4717 142.107 81.4675L142.122 81.452ZM147.198 84.1984C147.201 84.6134 147.082 85.0199 146.857 85.3664C146.631 85.7129 146.309 85.9838 145.931 86.1448C145.553 86.3057 145.136 86.3494 144.733 86.2703C144.331 86.1913 143.961 85.993 143.67 85.7007C143.378 85.4084 143.18 85.0351 143.099 84.6284C143.017 84.2216 143.058 83.7996 143.214 83.416C143.37 83.0323 143.635 82.7042 143.976 82.4734C144.317 82.2425 144.718 82.1192 145.128 82.1192C145.399 82.1172 145.668 82.1694 145.919 82.273C146.17 82.3766 146.398 82.5294 146.591 82.7227C146.783 82.916 146.936 83.1459 147.04 83.3992C147.145 83.6524 147.198 83.9241 147.198 84.1984ZM149.636 49.2083C149.637 49.7612 149.421 50.2917 149.036 50.6841C148.651 51.0765 148.128 51.299 147.582 51.3031C147.065 51.258 146.584 51.0186 146.234 50.6322C145.884 50.2457 145.689 49.7404 145.689 49.2161C145.689 48.6917 145.884 48.1864 146.234 47.8C146.584 47.4135 147.065 47.1742 147.582 47.1291C148.114 47.1365 148.623 47.3495 149.005 47.7245C149.387 48.0995 149.613 48.6082 149.636 49.1462V49.2083Z" fill="#3623F0"/>
<path d="M76.1297 151.833H79.5302C79.1858 153.706 78.1746 155.391 76.6847 156.572C75.1948 157.754 73.3277 158.352 71.4307 158.257C70.2389 158.299 69.0508 158.1 67.9374 157.671C66.8239 157.243 65.8079 156.594 64.9499 155.763C64.092 154.932 63.4096 153.937 62.9435 152.836C62.4775 151.735 62.2373 150.551 62.2373 149.355C62.2373 148.159 62.4775 146.975 62.9435 145.874C63.4096 144.773 64.092 143.778 64.9499 142.947C65.8079 142.116 66.8239 141.467 67.9374 141.039C69.0508 140.611 70.2389 140.411 71.4307 140.454C73.3314 140.356 75.2024 140.957 76.6932 142.143C78.1841 143.33 79.1927 145.021 79.5302 146.899H76.1297C75.8709 145.868 75.2577 144.962 74.3981 144.34C73.5385 143.719 72.4877 143.421 71.4307 143.5C70.672 143.489 69.9192 143.636 69.2198 143.931C68.5204 144.226 67.8893 144.663 67.3664 145.215C66.8434 145.766 66.4399 146.42 66.181 147.135C65.9222 147.851 65.8137 148.612 65.8623 149.372C65.8184 150.128 65.9304 150.886 66.1914 151.598C66.4524 152.309 66.8567 152.959 67.3791 153.507C67.9016 154.055 68.531 154.489 69.2281 154.782C69.9251 155.075 70.6749 155.221 71.4307 155.21C72.4838 155.286 73.5302 154.99 74.3884 154.373C75.2467 153.756 75.8627 152.857 76.1297 151.833Z" fill="black"/>
<path d="M100.241 149.371C100.261 151.159 99.7495 152.913 98.7726 154.41C97.7957 155.906 96.3972 157.077 94.7548 157.774C93.1125 158.472 91.3006 158.663 89.5494 158.325C87.7983 157.986 86.1871 157.133 84.9206 155.874C83.6542 154.615 82.7897 153.006 82.4372 151.253C82.0847 149.499 82.26 147.68 82.9409 146.027C83.6217 144.374 84.7774 142.961 86.2609 141.969C87.7444 140.976 89.4887 140.448 91.2721 140.453C92.4495 140.431 93.6194 140.645 94.7125 141.085C95.8055 141.524 96.7997 142.179 97.6359 143.01C98.4722 143.842 99.1337 144.833 99.5811 145.926C100.029 147.018 100.253 148.19 100.241 149.371ZM96.8845 149.371C96.8285 148.263 96.4495 147.197 95.7947 146.304C95.1398 145.411 94.2379 144.73 93.2008 144.346C92.1637 143.962 91.0371 143.892 89.9607 144.145C88.8842 144.397 87.9054 144.961 87.1456 145.766C86.3858 146.572 85.8785 147.583 85.6866 148.675C85.4947 149.767 85.6267 150.891 86.0661 151.909C86.5055 152.926 87.2331 153.792 88.1586 154.398C89.084 155.004 90.1666 155.325 91.2721 155.32C92.0363 155.32 92.7924 155.163 93.4943 154.86C94.1961 154.556 94.829 154.113 95.3543 153.556C95.8795 152.999 96.2861 152.341 96.5492 151.622C96.8123 150.902 96.9264 150.136 96.8845 149.371Z" fill="black"/>
<path d="M131.296 148.245V157.847H127.995V148.422C127.995 145.199 126.333 143.344 123.516 143.344C122.569 143.371 121.646 143.642 120.834 144.131C120.022 144.62 119.35 145.311 118.883 146.137C119.03 146.83 119.104 147.536 119.103 148.245V157.847H115.802V148.422C115.802 145.199 114.129 143.344 111.312 143.344C110.411 143.402 109.539 143.681 108.771 144.156C108.004 144.632 107.364 145.289 106.91 146.071V157.847H103.608V140.883H106.91V142.395C107.555 141.705 108.341 141.163 109.215 140.806C110.089 140.45 111.03 140.288 111.972 140.331C113.077 140.298 114.174 140.538 115.164 141.031C116.155 141.524 117.009 142.254 117.65 143.157C118.472 142.223 119.492 141.485 120.634 140.996C121.776 140.507 123.012 140.28 124.253 140.331C128.336 140.331 131.373 143.411 131.373 148.234" fill="black"/>
<path d="M152.877 149.371C152.894 151.69 151.995 153.921 150.376 155.576C148.757 157.231 146.55 158.175 144.238 158.201C142.182 158.248 140.177 157.551 138.592 156.236V166.678H135.291V140.884H138.592V142.396C140.178 141.084 142.183 140.391 144.238 140.442C146.559 140.486 148.77 141.447 150.388 143.118C152.006 144.788 152.9 147.032 152.877 149.36M149.575 149.36C149.593 148.583 149.457 147.809 149.175 147.084C148.893 146.36 148.47 145.698 147.932 145.138C147.394 144.578 146.751 144.13 146.039 143.82C145.328 143.511 144.562 143.345 143.787 143.334C142.762 143.314 141.748 143.557 140.843 144.04C139.938 144.523 139.171 145.23 138.614 146.093V152.583C139.171 153.447 139.938 154.153 140.843 154.636C141.748 155.119 142.762 155.362 143.787 155.342C145.344 155.316 146.828 154.672 147.913 153.551C148.998 152.429 149.596 150.923 149.575 149.36Z" fill="black"/>
<path d="M159.634 132.076H156.311V157.815H159.634V132.076Z" fill="black"/>
<path d="M180.499 150.642H180.421H166.754C166.936 152.005 167.62 153.25 168.67 154.134C169.72 155.018 171.062 155.477 172.432 155.421C173.246 155.49 174.063 155.33 174.792 154.96C175.521 154.589 176.133 154.023 176.559 153.324H180.135C179.156 156.337 176.119 158.257 172.322 158.257C171.157 158.291 169.997 158.085 168.914 157.654C167.831 157.222 166.847 156.572 166.022 155.746C165.198 154.919 164.551 153.932 164.12 152.846C163.69 151.759 163.485 150.596 163.518 149.428C163.472 148.252 163.668 147.079 164.093 145.982C164.518 144.885 165.164 143.887 165.989 143.051C166.815 142.215 167.803 141.558 168.892 141.121C169.982 140.683 171.149 140.475 172.322 140.509C177.098 140.509 180.532 144.13 180.565 149.24C180.576 149.726 180.553 150.213 180.499 150.697M166.754 148.136H177.208C176.922 145.233 175.073 143.313 172.179 143.313C170.836 143.287 169.532 143.768 168.527 144.662C167.522 145.556 166.889 146.796 166.754 148.136Z" fill="black"/>
<path d="M200.385 150.641H200.307H186.651C186.833 152.002 187.515 153.246 188.563 154.13C189.611 155.014 190.95 155.474 192.318 155.42C193.132 155.489 193.949 155.33 194.678 154.959C195.407 154.589 196.019 154.023 196.445 153.323H200.021C199.042 156.337 196.005 158.257 192.219 158.257C191.054 158.291 189.894 158.085 188.811 157.653C187.728 157.221 186.744 156.572 185.919 155.745C185.095 154.919 184.448 153.932 184.017 152.846C183.587 151.759 183.382 150.596 183.415 149.427C183.371 148.252 183.568 147.08 183.994 145.983C184.419 144.887 185.065 143.89 185.89 143.054C186.715 142.219 187.703 141.561 188.791 141.124C189.88 140.686 191.047 140.477 192.219 140.509C196.984 140.509 200.418 144.129 200.451 149.24C200.462 149.726 200.439 150.213 200.385 150.696M186.651 148.136H197.094C196.808 145.233 194.959 143.313 192.065 143.313C190.723 143.287 189.421 143.769 188.417 144.662C187.414 145.556 186.783 146.796 186.651 148.136Z" fill="black"/>
<path d="M216 157.605C214.732 158.039 213.4 158.259 212.06 158.256C208.12 158.256 205.842 155.784 205.842 151.402V143.566H201.683V140.773H205.842V134.537H209.144V140.773H215.472V143.566H209.144V151.402C209.144 154.051 210.343 155.166 212.654 155.166C213.608 155.15 214.556 155.005 215.472 154.735L216 157.605Z" fill="black"/>
<path d="M40.4085 146.812V157.705H37.2391V147.341C37.2391 144.582 35.7755 143.236 33.5085 143.236C30.9114 143.236 29.7889 145.94 29.7889 145.94V157.75H26.6196V147.341C26.6196 144.582 25.1559 143.236 22.889 143.236C20.2918 143.236 19.1914 145.94 19.1914 145.94V157.75H16V140.807H18.9383V143.302C19.3841 142.407 20.0732 141.656 20.926 141.136C21.7788 140.617 22.7607 140.35 23.7583 140.366C28.0942 140.366 29.1837 143.523 29.1837 143.523C29.6669 142.561 30.4102 141.754 31.3288 141.196C32.2473 140.638 33.304 140.35 34.3779 140.366C37.9985 140.366 40.4085 142.684 40.4085 146.812Z" fill="black"/>
<path d="M44.0844 162.947C44.6888 163.435 45.4166 163.744 46.1863 163.841C47.5949 163.841 48.2442 162.881 48.9375 161.203L50.3131 157.848L42.0596 140.607H45.6911L51.8758 154.161L57.136 140.607H60.6135C60.6135 140.607 51.8098 162.307 51.3366 163.311C50.9775 164.322 50.315 165.197 49.4401 165.816C48.5652 166.435 47.5209 166.766 46.4505 166.766C45.1086 166.745 43.8044 166.318 42.7089 165.54L44.0844 162.947Z" fill="black"/>
<path d="M16.48 175.28V173.76H18.28V170.94H19.96V173.76H22.84V175.28H19.96V180.26C19.96 181.16 20.4 181.68 21.3 181.68C21.82 181.68 22.36 181.3 22.36 181.3L22.98 182.68C22.18 183.12 21.6 183.24 21.06 183.24C19.74 183.24 18.28 182.38 18.28 180.34V175.28H16.48ZM25.0995 183V173.76H26.7795V183H25.0995ZM24.7995 170.8C24.7995 170.18 25.3195 169.66 25.9395 169.66C26.5595 169.66 27.0795 170.18 27.0795 170.8C27.0795 171.42 26.5595 171.94 25.9395 171.94C25.3195 171.94 24.7995 171.42 24.7995 170.8ZM39.4033 173.52C41.3233 173.52 42.6033 174.78 42.6033 177.06V183H40.9233V177.32C40.9233 175.82 40.1433 175.08 38.9433 175.08C37.5633 175.08 36.9633 176.56 36.9633 176.56V183H35.2833V177.32C35.2833 175.82 34.5033 175.08 33.3033 175.08C31.9433 175.08 31.3233 176.56 31.3233 176.56V183H29.6433V173.76H31.2033V175.12C31.2033 175.12 31.8833 173.52 33.7633 173.52C36.0633 173.52 36.6433 175.24 36.6433 175.24C36.6433 175.24 37.3833 173.52 39.4033 173.52ZM49.1506 173.52C51.7306 173.52 53.6506 175.46 53.6506 178.44C53.6506 178.62 53.6506 178.76 53.6306 178.98H46.1706C46.2706 180.38 47.6106 181.68 49.3506 181.68C51.1706 181.68 52.1306 180.32 52.1306 180.32L53.1906 181.42C53.1906 181.42 51.7906 183.24 49.3506 183.24C46.5506 183.24 44.5306 181.12 44.5306 178.38C44.5306 175.68 46.3706 173.52 49.1506 173.52ZM46.2106 177.58H52.0106C51.9506 176.54 51.0106 175.08 49.1506 175.08C47.1506 175.08 46.3306 176.62 46.2106 177.58Z" fill="black"/>
</svg>
