<svg width="24" height="24" viewBox="0 0 24 24" xmlns="http://www.w3.org/2000/svg">
<path d="M21 6H3.00001V19.5H21V6ZM16.3358 4.5L15.5858 3H8.43751L7.68751 4.5H16.3358ZM2.25001 4.5H6.00001L7.07851 2.3205C7.21901 2.0705 7.40651 1.87125 7.64101 1.72275C7.87551 1.57425 8.14126 1.5 8.43826 1.5H15.5865C15.868 1.5 16.1258 1.57425 16.3598 1.72275C16.5938 1.87125 16.7813 2.0705 16.9223 2.3205L18.0008 4.5H21.7508C21.9698 4.5 22.1495 4.57025 22.29 4.71075C22.4305 4.85125 22.5008 5.031 22.5008 5.25V20.25C22.5008 20.469 22.4305 20.6488 22.29 20.7892C22.1495 20.9298 21.9698 21 21.7508 21H2.25076C2.03176 21 1.85201 20.9298 1.71151 20.7892C1.57101 20.6488 1.50076 20.469 1.50076 20.25V5.25C1.50076 5.031 1.57101 4.85125 1.71151 4.71075C1.85201 4.57025 2.03176 4.5 2.25076 4.5H2.25001ZM12 16.5C13.0625 16.4685 13.9453 16.1012 14.6483 15.3983C15.3513 14.6953 15.7185 13.8125 15.75 12.75C15.7185 11.6875 15.3513 10.8047 14.6483 10.1017C13.9453 9.39875 13.0625 9.0315 12 9C10.9375 9.0315 10.0548 9.39875 9.35176 10.1017C8.64876 10.8047 8.28151 11.6875 8.25001 12.75C8.28151 13.8125 8.64876 14.6953 9.35176 15.3983C10.0548 16.1012 10.9375 16.4685 12 16.5ZM12 18C10.5155 17.9685 9.27726 17.4567 8.28526 16.4647C7.29326 15.4727 6.78151 14.2345 6.75001 12.75C6.78151 11.2655 7.29326 10.0273 8.28526 9.03525C9.27726 8.04325 10.5155 7.5315 12 7.5C13.4845 7.5315 14.7228 8.04325 15.7148 9.03525C16.7068 10.0273 17.2185 11.2655 17.25 12.75C17.2185 14.2345 16.7068 15.4727 15.7148 16.4647C14.7228 17.4567 13.4845 17.9685 12 18Z" />
</svg>
