<svg width="24" height="24" viewBox="0 0 24 24" xmlns="http://www.w3.org/2000/svg">
<path d="M17.9063 5.03892L12.0001 10.9452L6.09381 5.03892C5.93731 4.89842 5.76156 4.82817 5.56656 4.82817C5.37156 4.82817 5.19956 4.90242 5.05056 5.05092C4.90156 5.19942 4.82731 5.37142 4.82781 5.56692C4.82831 5.76242 4.89856 5.93817 5.03856 6.09417L10.9448 12.0004L5.03856 17.9067C4.83556 18.1097 4.76906 18.3519 4.83906 18.6334C4.90906 18.9149 5.08106 19.0907 5.35506 19.1607C5.62906 19.2307 5.87506 19.1642 6.09306 18.9612L11.9993 13.0549L17.9056 18.9612C18.0621 19.1017 18.2378 19.1719 18.4328 19.1719C18.6278 19.1719 18.7998 19.0977 18.9488 18.9492C19.0978 18.8007 19.1721 18.6287 19.1716 18.4332C19.1711 18.2377 19.1008 18.0619 18.9608 17.9059L13.0546 11.9997L18.9608 6.09342C19.1638 5.89042 19.2303 5.64817 19.1603 5.36667C19.0903 5.08517 18.9146 4.90942 18.6331 4.83942C18.3516 4.76942 18.1093 4.83592 17.9063 5.03892Z" />
</svg>
