<svg width="24" height="24" viewBox="0 0 24 24"  xmlns="http://www.w3.org/2000/svg">
<path d="M3 9V21H21V4.5H18V5.25C18 5.469 17.9298 5.64875 17.7892 5.78925C17.6488 5.92975 17.469 6 17.25 6C17.031 6 16.8512 5.92975 16.7108 5.78925C16.5703 5.64875 16.5 5.469 16.5 5.25V4.5H7.5V5.25C7.5 5.469 7.42975 5.64875 7.28925 5.78925C7.14875 5.92975 6.969 6 6.75 6C6.531 6 6.35125 5.92975 6.21075 5.78925C6.07025 5.64875 6 5.469 6 5.25V4.5H3V7.5H21V9H3ZM7.5 3H16.5V2.25C16.5 2.031 16.5703 1.85125 16.7108 1.71075C16.8512 1.57025 17.031 1.5 17.25 1.5C17.469 1.5 17.6488 1.57025 17.7892 1.71075C17.9298 1.85125 18 2.031 18 2.25V3H21.75C21.969 3 22.1488 3.07025 22.2892 3.21075C22.4298 3.35125 22.5 3.531 22.5 3.75V21.75C22.5 21.969 22.4298 22.1488 22.2892 22.2892C22.1488 22.4298 21.969 22.5 21.75 22.5H2.25C2.031 22.5 1.85125 22.4298 1.71075 22.2892C1.57025 22.1488 1.5 21.969 1.5 21.75V3.75C1.5 3.531 1.57025 3.35125 1.71075 3.21075C1.85125 3.07025 2.031 3 2.25 3H6V2.25C6 2.031 6.07025 1.85125 6.21075 1.71075C6.35125 1.57025 6.531 1.5 6.75 1.5C6.969 1.5 7.14875 1.57025 7.28925 1.71075C7.42975 1.85125 7.5 2.031 7.5 2.25V3ZM6.75 12H8.25C8.469 12 8.64875 12.0703 8.78925 12.2108C8.92975 12.3512 9 12.531 9 12.75C9 12.969 8.92975 13.1488 8.78925 13.2892C8.64875 13.4297 8.469 13.5 8.25 13.5H6.75C6.531 13.5 6.35125 13.4297 6.21075 13.2892C6.07025 13.1488 6 12.969 6 12.75C6 12.531 6.07025 12.3512 6.21075 12.2108C6.35125 12.0703 6.531 12 6.75 12ZM6.75 16.5H8.25C8.469 16.5 8.64875 16.5703 8.78925 16.7108C8.92975 16.8512 9 17.031 9 17.25C9 17.469 8.92975 17.6488 8.78925 17.7892C8.64875 17.9298 8.469 18 8.25 18H6.75C6.531 18 6.35125 17.9298 6.21075 17.7892C6.07025 17.6488 6 17.469 6 17.25C6 17.031 6.07025 16.8512 6.21075 16.7108C6.35125 16.5703 6.531 16.5 6.75 16.5ZM11.25 12H12.75C12.969 12 13.1488 12.0703 13.2892 12.2108C13.4297 12.3512 13.5 12.531 13.5 12.75C13.5 12.969 13.4297 13.1488 13.2892 13.2892C13.1488 13.4297 12.969 13.5 12.75 13.5H11.25C11.031 13.5 10.8512 13.4297 10.7108 13.2892C10.5703 13.1488 10.5 12.969 10.5 12.75C10.5 12.531 10.5703 12.3512 10.7108 12.2108C10.8512 12.0703 11.031 12 11.25 12ZM11.25 16.5H12.75C12.969 16.5 13.1488 16.5703 13.2892 16.7108C13.4297 16.8512 13.5 17.031 13.5 17.25C13.5 17.469 13.4297 17.6488 13.2892 17.7892C13.1488 17.9298 12.969 18 12.75 18H11.25C11.031 18 10.8512 17.9298 10.7108 17.7892C10.5703 17.6488 10.5 17.469 10.5 17.25C10.5 17.031 10.5703 16.8512 10.7108 16.7108C10.8512 16.5703 11.031 16.5 11.25 16.5ZM15.75 12H17.25C17.469 12 17.6488 12.0703 17.7892 12.2108C17.9298 12.3512 18 12.531 18 12.75C18 12.969 17.9298 13.1488 17.7892 13.2892C17.6488 13.4297 17.469 13.5 17.25 13.5H15.75C15.531 13.5 15.3512 13.4297 15.2108 13.2892C15.0703 13.1488 15 12.969 15 12.75C15 12.531 15.0703 12.3512 15.2108 12.2108C15.3512 12.0703 15.531 12 15.75 12ZM15.75 16.5H17.25C17.469 16.5 17.6488 16.5703 17.7892 16.7108C17.9298 16.8512 18 17.031 18 17.25C18 17.469 17.9298 17.6488 17.7892 17.7892C17.6488 17.9298 17.469 18 17.25 18H15.75C15.531 18 15.3512 17.9298 15.2108 17.7892C15.0703 17.6488 15 17.469 15 17.25C15 17.031 15.0703 16.8512 15.2108 16.7108C15.3512 16.5703 15.531 16.5 15.75 16.5Z" />
</svg>
