<svg width="24" height="24" viewBox="0 0 24 24" fill="none" xmlns="http://www.w3.org/2000/svg">
<path d="M22 12C22 17.5228 17.5228 22 12 22C6.47715 22 2 17.5228 2 12C2 6.47715 6.47715 2 12 2C17.5228 2 22 6.47715 22 12Z" fill="#FF0BE7"/>
<path d="M8.29933 9.536C8.46466 9.536 8.58866 9.496 8.67133 9.416C8.75666 9.336 8.79933 9.22933 8.79933 9.096C8.79933 8.96267 8.75666 8.856 8.67133 8.776C8.58866 8.696 8.46466 8.656 8.29933 8.656H7.88733V9.536H8.29933ZM7.40733 8.2H8.35933C8.49799 8.2 8.62466 8.22267 8.73933 8.268C8.854 8.31333 8.95133 8.376 9.03133 8.456C9.114 8.536 9.17666 8.63067 9.21933 8.74C9.26466 8.84933 9.28733 8.968 9.28733 9.096C9.28733 9.224 9.26466 9.34267 9.21933 9.452C9.17666 9.56133 9.114 9.656 9.03133 9.736C8.95133 9.816 8.854 9.87867 8.73933 9.924C8.62466 9.96933 8.49799 9.992 8.35933 9.992H7.88733V11H7.40733V8.2Z" fill="white"/>
<path d="M9.67295 7.976H10.153V11H9.67295V7.976Z" fill="white"/>
<path d="M11.4313 10.648C11.5033 10.648 11.5659 10.6373 11.6193 10.616C11.6753 10.5947 11.7219 10.5693 11.7593 10.54C11.8019 10.508 11.8393 10.4707 11.8713 10.428V10.232C11.8366 10.2133 11.7966 10.1973 11.7513 10.184C11.7139 10.1707 11.6686 10.16 11.6153 10.152C11.5619 10.1413 11.5033 10.136 11.4393 10.136C11.4019 10.136 11.3619 10.1413 11.3193 10.152C11.2793 10.16 11.2419 10.1747 11.2073 10.196C11.1726 10.2147 11.1433 10.2413 11.1193 10.276C11.0979 10.3107 11.0873 10.3533 11.0873 10.404C11.0873 10.4547 11.0979 10.496 11.1193 10.528C11.1406 10.56 11.1686 10.5853 11.2033 10.604C11.2379 10.62 11.2753 10.632 11.3153 10.64C11.3553 10.6453 11.3939 10.648 11.4313 10.648ZM11.4873 9.056C11.7619 9.056 11.9739 9.12 12.1233 9.248C12.2753 9.376 12.3513 9.548 12.3513 9.764V11H11.9073V10.76C11.8673 10.8133 11.8166 10.8613 11.7553 10.904C11.7019 10.9413 11.6366 10.9747 11.5593 11.004C11.4819 11.0333 11.3899 11.048 11.2833 11.048C11.1953 11.048 11.1099 11.0333 11.0273 11.004C10.9446 10.9773 10.8713 10.9373 10.8073 10.884C10.7433 10.828 10.6926 10.7613 10.6553 10.684C10.6179 10.604 10.5993 10.5133 10.5993 10.412C10.5993 10.3213 10.6179 10.2373 10.6553 10.16C10.6953 10.0827 10.7486 10.016 10.8153 9.96C10.8846 9.904 10.9633 9.86133 11.0513 9.832C11.1419 9.8 11.2393 9.784 11.3433 9.784C11.4286 9.784 11.5046 9.792 11.5713 9.808C11.6379 9.82133 11.6939 9.836 11.7393 9.852C11.7899 9.87333 11.8339 9.896 11.8713 9.92V9.812C11.8713 9.75067 11.8579 9.69867 11.8313 9.656C11.8046 9.61333 11.7713 9.58 11.7313 9.556C11.6913 9.52933 11.6473 9.51067 11.5993 9.5C11.5513 9.48933 11.5059 9.484 11.4633 9.484C11.3939 9.484 11.3246 9.492 11.2553 9.508C11.1886 9.52133 11.1286 9.53733 11.0753 9.556C11.0113 9.57733 10.9513 9.6 10.8953 9.624L10.7393 9.228C10.8086 9.19867 10.8833 9.17067 10.9633 9.144C11.0326 9.12267 11.1113 9.10267 11.1993 9.084C11.2899 9.06533 11.3859 9.056 11.4873 9.056Z" fill="white"/>
<path d="M13.7238 10.6C13.8038 10.6 13.8731 10.588 13.9318 10.564C13.9931 10.54 14.0425 10.5133 14.0798 10.484C14.1251 10.452 14.1625 10.4133 14.1918 10.368L14.5078 10.688C14.4518 10.7573 14.3851 10.8173 14.3078 10.868C14.2411 10.9133 14.1585 10.9547 14.0598 10.992C13.9638 11.0293 13.8518 11.048 13.7238 11.048C13.5825 11.048 13.4491 11.0227 13.3238 10.972C13.2011 10.9187 13.0931 10.848 12.9998 10.76C12.9091 10.6693 12.8371 10.564 12.7838 10.444C12.7305 10.3213 12.7038 10.1907 12.7038 10.052C12.7038 9.91333 12.7305 9.784 12.7838 9.664C12.8371 9.54133 12.9091 9.43467 12.9998 9.344C13.0931 9.25333 13.2011 9.18267 13.3238 9.132C13.4491 9.08133 13.5825 9.056 13.7238 9.056C13.8518 9.056 13.9638 9.07467 14.0598 9.112C14.1558 9.14667 14.2371 9.18667 14.3038 9.232C14.3811 9.28267 14.4465 9.34133 14.4998 9.408L14.1678 9.704C14.1358 9.66667 14.0971 9.63333 14.0518 9.604C14.0145 9.58 13.9678 9.55733 13.9118 9.536C13.8585 9.51467 13.7958 9.504 13.7238 9.504C13.6438 9.504 13.5705 9.51867 13.5038 9.548C13.4371 9.57733 13.3811 9.61733 13.3358 9.668C13.2905 9.71867 13.2545 9.77733 13.2278 9.844C13.2038 9.908 13.1918 9.97733 13.1918 10.052C13.1918 10.1267 13.2038 10.1973 13.2278 10.264C13.2545 10.3307 13.2905 10.3893 13.3358 10.44C13.3811 10.488 13.4371 10.5267 13.5038 10.556C13.5705 10.5853 13.6438 10.6 13.7238 10.6Z" fill="white"/>
<path d="M15.6441 9.056C15.7747 9.056 15.8974 9.08 16.0121 9.128C16.1294 9.176 16.2307 9.244 16.3161 9.332C16.4041 9.41733 16.4734 9.52133 16.5241 9.644C16.5747 9.764 16.6001 9.89733 16.6001 10.044C16.6001 10.0627 16.6001 10.088 16.6001 10.12C16.6001 10.152 16.5987 10.1867 16.5961 10.224H15.1801C15.1881 10.2667 15.2067 10.3107 15.2361 10.356C15.2654 10.4013 15.3027 10.4427 15.3481 10.48C15.3934 10.5173 15.4467 10.548 15.5081 10.572C15.5694 10.596 15.6374 10.608 15.7121 10.608C15.7947 10.608 15.8681 10.5987 15.9321 10.58C15.9961 10.5587 16.0507 10.536 16.0961 10.512C16.1467 10.4827 16.1921 10.4507 16.2321 10.416L16.4721 10.776C16.4107 10.8267 16.3414 10.872 16.2641 10.912C16.1974 10.9467 16.1174 10.9773 16.0241 11.004C15.9307 11.0333 15.8267 11.048 15.7121 11.048C15.5681 11.048 15.4334 11.0227 15.3081 10.972C15.1854 10.9187 15.0774 10.848 14.9841 10.76C14.8934 10.6693 14.8214 10.564 14.7681 10.444C14.7174 10.3213 14.6921 10.1907 14.6921 10.052C14.6921 9.91333 14.7161 9.784 14.7641 9.664C14.8121 9.54133 14.8774 9.436 14.9601 9.348C15.0454 9.25733 15.1467 9.18667 15.2641 9.136C15.3814 9.08267 15.5081 9.056 15.6441 9.056ZM16.1201 9.876C16.1174 9.836 16.1054 9.79333 16.0841 9.748C16.0654 9.70267 16.0361 9.66133 15.9961 9.624C15.9587 9.584 15.9107 9.552 15.8521 9.528C15.7934 9.504 15.7241 9.492 15.6441 9.492C15.5667 9.492 15.5001 9.504 15.4441 9.528C15.3881 9.552 15.3401 9.58267 15.3001 9.62C15.2627 9.65733 15.2334 9.69867 15.2121 9.744C15.1934 9.78933 15.1827 9.83333 15.1801 9.876H16.1201Z" fill="white"/>
<path d="M9.81395 13.056C9.90462 13.056 9.99129 13.072 10.074 13.104C10.1593 13.136 10.234 13.1827 10.298 13.244C10.362 13.3053 10.4126 13.38 10.45 13.468C10.49 13.556 10.51 13.6573 10.51 13.772V15H10.03V13.892C10.03 13.756 9.99262 13.6573 9.91795 13.596C9.84595 13.5347 9.75795 13.504 9.65395 13.504C9.59262 13.504 9.53795 13.5173 9.48995 13.544C9.44462 13.5707 9.40595 13.5987 9.37395 13.628C9.33662 13.6653 9.30462 13.7067 9.27795 13.752V15H8.79795V11.976H9.27795V13.332C9.31262 13.2813 9.35529 13.236 9.40595 13.196C9.45129 13.1613 9.50729 13.1293 9.57395 13.1C9.64062 13.0707 9.72062 13.056 9.81395 13.056Z" fill="white"/>
<path d="M11.812 13.056C11.9427 13.056 12.0654 13.08 12.18 13.128C12.2974 13.176 12.3987 13.244 12.484 13.332C12.572 13.4173 12.6414 13.5213 12.692 13.644C12.7427 13.764 12.768 13.8973 12.768 14.044C12.768 14.0627 12.768 14.088 12.768 14.12C12.768 14.152 12.7667 14.1867 12.764 14.224H11.348C11.356 14.2667 11.3747 14.3107 11.404 14.356C11.4334 14.4013 11.4707 14.4427 11.516 14.48C11.5614 14.5173 11.6147 14.548 11.676 14.572C11.7374 14.596 11.8054 14.608 11.88 14.608C11.9627 14.608 12.036 14.5987 12.1 14.58C12.164 14.5587 12.2187 14.536 12.264 14.512C12.3147 14.4827 12.36 14.4507 12.4 14.416L12.64 14.776C12.5787 14.8267 12.5094 14.872 12.432 14.912C12.3654 14.9467 12.2854 14.9773 12.192 15.004C12.0987 15.0333 11.9947 15.048 11.88 15.048C11.736 15.048 11.6014 15.0227 11.476 14.972C11.3534 14.9187 11.2454 14.848 11.152 14.76C11.0614 14.6693 10.9894 14.564 10.936 14.444C10.8854 14.3213 10.86 14.1907 10.86 14.052C10.86 13.9133 10.884 13.784 10.932 13.664C10.98 13.5413 11.0454 13.436 11.128 13.348C11.2134 13.2573 11.3147 13.1867 11.432 13.136C11.5494 13.0827 11.676 13.056 11.812 13.056ZM12.288 13.876C12.2854 13.836 12.2734 13.7933 12.252 13.748C12.2334 13.7027 12.204 13.6613 12.164 13.624C12.1267 13.584 12.0787 13.552 12.02 13.528C11.9614 13.504 11.892 13.492 11.812 13.492C11.7347 13.492 11.668 13.504 11.612 13.528C11.556 13.552 11.508 13.5827 11.468 13.62C11.4307 13.6573 11.4014 13.6987 11.38 13.744C11.3614 13.7893 11.3507 13.8333 11.348 13.876H12.288Z" fill="white"/>
<path d="M14.0929 13.056C14.1355 13.056 14.1769 13.06 14.2169 13.068C14.2569 13.0733 14.2915 13.08 14.3209 13.088C14.3555 13.0987 14.3889 13.108 14.4209 13.116L14.2529 13.548C14.2369 13.5427 14.2169 13.536 14.1929 13.528C14.1715 13.5227 14.1462 13.5173 14.1169 13.512C14.0902 13.5067 14.0595 13.504 14.0249 13.504C13.9502 13.504 13.8862 13.5173 13.8329 13.544C13.7822 13.5707 13.7395 13.6 13.7049 13.632C13.6649 13.6693 13.6302 13.712 13.6009 13.76V15H13.1209V13.104H13.5769V13.38C13.6115 13.3213 13.6529 13.268 13.7009 13.22C13.7435 13.18 13.7969 13.1427 13.8609 13.108C13.9275 13.0733 14.0049 13.056 14.0929 13.056Z" fill="white"/>
<path d="M15.4292 13.056C15.5599 13.056 15.6826 13.08 15.7972 13.128C15.9146 13.176 16.0159 13.244 16.1012 13.332C16.1892 13.4173 16.2586 13.5213 16.3092 13.644C16.3599 13.764 16.3852 13.8973 16.3852 14.044C16.3852 14.0627 16.3852 14.088 16.3852 14.12C16.3852 14.152 16.3839 14.1867 16.3812 14.224H14.9652C14.9732 14.2667 14.9919 14.3107 15.0212 14.356C15.0506 14.4013 15.0879 14.4427 15.1332 14.48C15.1786 14.5173 15.2319 14.548 15.2932 14.572C15.3546 14.596 15.4226 14.608 15.4972 14.608C15.5799 14.608 15.6532 14.5987 15.7172 14.58C15.7812 14.5587 15.8359 14.536 15.8812 14.512C15.9319 14.4827 15.9772 14.4507 16.0172 14.416L16.2572 14.776C16.1959 14.8267 16.1266 14.872 16.0492 14.912C15.9826 14.9467 15.9026 14.9773 15.8092 15.004C15.7159 15.0333 15.6119 15.048 15.4972 15.048C15.3532 15.048 15.2186 15.0227 15.0932 14.972C14.9706 14.9187 14.8626 14.848 14.7692 14.76C14.6786 14.6693 14.6066 14.564 14.5532 14.444C14.5026 14.3213 14.4772 14.1907 14.4772 14.052C14.4772 13.9133 14.5012 13.784 14.5492 13.664C14.5972 13.5413 14.6626 13.436 14.7452 13.348C14.8306 13.2573 14.9319 13.1867 15.0492 13.136C15.1666 13.0827 15.2932 13.056 15.4292 13.056ZM15.9052 13.876C15.9026 13.836 15.8906 13.7933 15.8692 13.748C15.8506 13.7027 15.8212 13.6613 15.7812 13.624C15.7439 13.584 15.6959 13.552 15.6372 13.528C15.5786 13.504 15.5092 13.492 15.4292 13.492C15.3519 13.492 15.2852 13.504 15.2292 13.528C15.1732 13.552 15.1252 13.5827 15.0852 13.62C15.0479 13.6573 15.0186 13.6987 14.9972 13.744C14.9786 13.7893 14.9679 13.8333 14.9652 13.876H15.9052Z" fill="white"/>
</svg>
