<svg width="24" height="24" viewBox="0 0 24 24" fill="none" xmlns="http://www.w3.org/2000/svg">
<path d="M0 12C0 5.37258 5.37258 0 12 0V0C18.6274 0 24 5.37258 24 12V12C24 18.6274 18.6274 24 12 24V24C5.37258 24 0 18.6274 0 12V12Z" fill="#D6F6F6"/>
<path d="M20.3334 12.0013C20.3334 16.6037 16.6024 20.3346 12 20.3346C7.39765 20.3346 3.66669 16.6037 3.66669 12.0013C3.66669 7.39893 7.39765 3.66797 12 3.66797C16.6024 3.66797 20.3334 7.39893 20.3334 12.0013Z" fill="#FF0BE7"/>
<path d="M8.91613 9.94797C9.05391 9.94797 9.15724 9.91464 9.22613 9.84797C9.29724 9.7813 9.33279 9.69241 9.33279 9.5813C9.33279 9.47019 9.29724 9.3813 9.22613 9.31464C9.15724 9.24797 9.05391 9.21464 8.91613 9.21464H8.57279V9.94797H8.91613ZM8.17279 8.83464H8.96613C9.08168 8.83464 9.18724 8.85352 9.28279 8.8913C9.37835 8.92908 9.45946 8.9813 9.52613 9.04797C9.59502 9.11464 9.64724 9.19352 9.68279 9.28464C9.72057 9.37575 9.73946 9.47464 9.73946 9.5813C9.73946 9.68797 9.72057 9.78686 9.68279 9.87797C9.64724 9.96908 9.59502 10.048 9.52613 10.1146C9.45946 10.1813 9.37835 10.2335 9.28279 10.2713C9.18724 10.3091 9.08168 10.328 8.96613 10.328H8.57279V11.168H8.17279V8.83464Z" fill="white"/>
<path d="M10.0608 8.64797H10.4608V11.168H10.0608V8.64797Z" fill="white"/>
<path d="M11.5261 10.8746C11.5861 10.8746 11.6383 10.8657 11.6827 10.848C11.7294 10.8302 11.7683 10.8091 11.7994 10.7846C11.835 10.758 11.8661 10.7269 11.8927 10.6913V10.528C11.8639 10.5124 11.8305 10.4991 11.7927 10.488C11.7616 10.4769 11.7239 10.468 11.6794 10.4613C11.635 10.4524 11.5861 10.448 11.5327 10.448C11.5016 10.448 11.4683 10.4524 11.4327 10.4613C11.3994 10.468 11.3683 10.4802 11.3394 10.498C11.3105 10.5135 11.2861 10.5357 11.2661 10.5646C11.2483 10.5935 11.2394 10.6291 11.2394 10.6713C11.2394 10.7135 11.2483 10.748 11.2661 10.7746C11.2839 10.8013 11.3072 10.8224 11.3361 10.838C11.365 10.8513 11.3961 10.8613 11.4294 10.868C11.4627 10.8724 11.495 10.8746 11.5261 10.8746ZM11.5727 9.54797C11.8016 9.54797 11.9783 9.6013 12.1027 9.70797C12.2294 9.81464 12.2927 9.95797 12.2927 10.138V11.168H11.9227V10.968C11.8894 11.0124 11.8472 11.0524 11.7961 11.088C11.7516 11.1191 11.6972 11.1469 11.6327 11.1713C11.5683 11.1957 11.4916 11.208 11.4027 11.208C11.3294 11.208 11.2583 11.1957 11.1894 11.1713C11.1205 11.1491 11.0594 11.1157 11.0061 11.0713C10.9527 11.0246 10.9105 10.9691 10.8794 10.9046C10.8483 10.838 10.8327 10.7624 10.8327 10.678C10.8327 10.6024 10.8483 10.5324 10.8794 10.468C10.9127 10.4035 10.9572 10.348 11.0127 10.3013C11.0705 10.2546 11.1361 10.2191 11.2094 10.1946C11.285 10.168 11.3661 10.1546 11.4527 10.1546C11.5239 10.1546 11.5872 10.1613 11.6427 10.1746C11.6983 10.1857 11.745 10.198 11.7827 10.2113C11.825 10.2291 11.8616 10.248 11.8927 10.268V10.178C11.8927 10.1269 11.8816 10.0835 11.8594 10.048C11.8372 10.0124 11.8094 9.98464 11.7761 9.96464C11.7427 9.94241 11.7061 9.92686 11.6661 9.91797C11.6261 9.90908 11.5883 9.90464 11.5527 9.90464C11.495 9.90464 11.4372 9.9113 11.3794 9.92464C11.3239 9.93575 11.2739 9.94908 11.2294 9.96464C11.1761 9.98241 11.1261 10.0013 11.0794 10.0213L10.9494 9.6913C11.0072 9.66686 11.0694 9.64352 11.1361 9.6213C11.1939 9.60352 11.2594 9.58686 11.3327 9.5713C11.4083 9.55575 11.4883 9.54797 11.5727 9.54797Z" fill="white"/>
<path d="M13.4365 10.8346C13.5032 10.8346 13.561 10.8246 13.6099 10.8046C13.661 10.7846 13.7021 10.7624 13.7332 10.738C13.771 10.7113 13.8021 10.6791 13.8265 10.6413L14.0899 10.908C14.0432 10.9657 13.9876 11.0157 13.9232 11.058C13.8676 11.0957 13.7987 11.1302 13.7165 11.1613C13.6365 11.1924 13.5432 11.208 13.4365 11.208C13.3187 11.208 13.2076 11.1869 13.1032 11.1446C13.001 11.1002 12.911 11.0413 12.8332 10.968C12.7576 10.8924 12.6976 10.8046 12.6532 10.7046C12.6087 10.6024 12.5865 10.4935 12.5865 10.378C12.5865 10.2624 12.6087 10.1546 12.6532 10.0546C12.6976 9.95241 12.7576 9.86352 12.8332 9.78797C12.911 9.71241 13.001 9.65352 13.1032 9.6113C13.2076 9.56908 13.3187 9.54797 13.4365 9.54797C13.5432 9.54797 13.6365 9.56352 13.7165 9.59464C13.7965 9.62352 13.8643 9.65686 13.9199 9.69464C13.9843 9.73686 14.0387 9.78575 14.0832 9.8413L13.8065 10.088C13.7799 10.0569 13.7476 10.0291 13.7099 10.0046C13.6787 9.98464 13.6399 9.96575 13.5932 9.94797C13.5487 9.93019 13.4965 9.9213 13.4365 9.9213C13.3699 9.9213 13.3087 9.93352 13.2532 9.95797C13.1976 9.98241 13.151 10.0157 13.1132 10.058C13.0754 10.1002 13.0454 10.1491 13.0232 10.2046C13.0032 10.258 12.9932 10.3157 12.9932 10.378C12.9932 10.4402 13.0032 10.4991 13.0232 10.5546C13.0454 10.6102 13.0754 10.6591 13.1132 10.7013C13.151 10.7413 13.1976 10.7735 13.2532 10.798C13.3087 10.8224 13.3699 10.8346 13.4365 10.8346Z" fill="white"/>
<path d="M15.0368 9.54797C15.1456 9.54797 15.2479 9.56797 15.3434 9.60797C15.4412 9.64797 15.5256 9.70464 15.5968 9.77797C15.6701 9.84908 15.7279 9.93575 15.7701 10.038C15.8123 10.138 15.8334 10.2491 15.8334 10.3713C15.8334 10.3869 15.8334 10.408 15.8334 10.4346C15.8334 10.4613 15.8323 10.4902 15.8301 10.5213H14.6501C14.6568 10.5569 14.6723 10.5935 14.6968 10.6313C14.7212 10.6691 14.7523 10.7035 14.7901 10.7346C14.8279 10.7657 14.8723 10.7913 14.9234 10.8113C14.9745 10.8313 15.0312 10.8413 15.0934 10.8413C15.1623 10.8413 15.2234 10.8335 15.2768 10.818C15.3301 10.8002 15.3756 10.7813 15.4134 10.7613C15.4556 10.7369 15.4934 10.7102 15.5268 10.6813L15.7268 10.9813C15.6756 11.0235 15.6179 11.0613 15.5534 11.0946C15.4979 11.1235 15.4312 11.1491 15.3534 11.1713C15.2756 11.1957 15.189 11.208 15.0934 11.208C14.9734 11.208 14.8612 11.1869 14.7568 11.1446C14.6545 11.1002 14.5645 11.0413 14.4868 10.968C14.4112 10.8924 14.3512 10.8046 14.3068 10.7046C14.2645 10.6024 14.2434 10.4935 14.2434 10.378C14.2434 10.2624 14.2634 10.1546 14.3034 10.0546C14.3434 9.95241 14.3979 9.86464 14.4668 9.7913C14.5379 9.71575 14.6223 9.65686 14.7201 9.61464C14.8179 9.57019 14.9234 9.54797 15.0368 9.54797ZM15.4334 10.2313C15.4312 10.198 15.4212 10.1624 15.4034 10.1246C15.3879 10.0869 15.3634 10.0524 15.3301 10.0213C15.299 9.98797 15.259 9.9613 15.2101 9.9413C15.1612 9.9213 15.1034 9.9113 15.0368 9.9113C14.9723 9.9113 14.9168 9.9213 14.8701 9.9413C14.8234 9.9613 14.7834 9.98686 14.7501 10.018C14.719 10.0491 14.6945 10.0835 14.6768 10.1213C14.6612 10.1591 14.6523 10.1957 14.6501 10.2313H15.4334Z" fill="white"/>
<path d="M10.1783 12.8813C10.2539 12.8813 10.3261 12.8946 10.395 12.9213C10.4661 12.948 10.5283 12.9869 10.5816 13.038C10.635 13.0891 10.6772 13.1513 10.7083 13.2246C10.7416 13.298 10.7583 13.3824 10.7583 13.478V14.5013H10.3583V13.578C10.3583 13.4646 10.3272 13.3824 10.265 13.3313C10.205 13.2802 10.1316 13.2546 10.045 13.2546C9.99387 13.2546 9.94831 13.2657 9.90831 13.288C9.87054 13.3102 9.83831 13.3335 9.81165 13.358C9.78054 13.3891 9.75387 13.4235 9.73165 13.4613V14.5013H9.33165V11.9813H9.73165V13.1113C9.76054 13.0691 9.79609 13.0313 9.83832 12.998C9.87609 12.9691 9.92276 12.9424 9.97831 12.918C10.0339 12.8935 10.1005 12.8813 10.1783 12.8813Z" fill="white"/>
<path d="M11.8434 12.8813C11.9523 12.8813 12.0545 12.9013 12.1501 12.9413C12.2478 12.9813 12.3323 13.038 12.4034 13.1113C12.4767 13.1824 12.5345 13.2691 12.5767 13.3713C12.6189 13.4713 12.6401 13.5824 12.6401 13.7046C12.6401 13.7202 12.6401 13.7413 12.6401 13.768C12.6401 13.7946 12.6389 13.8235 12.6367 13.8546H11.4567C11.4634 13.8902 11.4789 13.9269 11.5034 13.9646C11.5278 14.0024 11.5589 14.0369 11.5967 14.068C11.6345 14.0991 11.6789 14.1246 11.7301 14.1446C11.7812 14.1646 11.8378 14.1746 11.9001 14.1746C11.9689 14.1746 12.0301 14.1669 12.0834 14.1513C12.1367 14.1335 12.1823 14.1146 12.2201 14.0946C12.2623 14.0702 12.3001 14.0435 12.3334 14.0146L12.5334 14.3146C12.4823 14.3569 12.4245 14.3946 12.3601 14.428C12.3045 14.4569 12.2378 14.4824 12.1601 14.5046C12.0823 14.5291 11.9956 14.5413 11.9001 14.5413C11.7801 14.5413 11.6678 14.5202 11.5634 14.478C11.4612 14.4335 11.3712 14.3746 11.2934 14.3013C11.2178 14.2257 11.1578 14.138 11.1134 14.038C11.0712 13.9357 11.0501 13.8269 11.0501 13.7113C11.0501 13.5957 11.0701 13.488 11.1101 13.388C11.1501 13.2857 11.2045 13.198 11.2734 13.1246C11.3445 13.0491 11.4289 12.9902 11.5267 12.948C11.6245 12.9035 11.7301 12.8813 11.8434 12.8813ZM12.2401 13.5646C12.2378 13.5313 12.2278 13.4957 12.2101 13.458C12.1945 13.4202 12.1701 13.3857 12.1367 13.3546C12.1056 13.3213 12.0656 13.2946 12.0167 13.2746C11.9678 13.2546 11.9101 13.2446 11.8434 13.2446C11.7789 13.2446 11.7234 13.2546 11.6767 13.2746C11.6301 13.2946 11.5901 13.3202 11.5567 13.3513C11.5256 13.3824 11.5012 13.4169 11.4834 13.4546C11.4678 13.4924 11.4589 13.5291 11.4567 13.5646H12.2401Z" fill="white"/>
<path d="M13.7441 12.8813C13.7796 12.8813 13.8141 12.8846 13.8474 12.8913C13.8807 12.8957 13.9096 12.9013 13.9341 12.908C13.963 12.9169 13.9907 12.9246 14.0174 12.9313L13.8774 13.2913C13.8641 13.2869 13.8474 13.2813 13.8274 13.2746C13.8096 13.2702 13.7885 13.2657 13.7641 13.2613C13.7418 13.2569 13.7163 13.2546 13.6874 13.2546C13.6252 13.2546 13.5718 13.2657 13.5274 13.288C13.4852 13.3102 13.4496 13.3346 13.4207 13.3613C13.3874 13.3924 13.3585 13.428 13.3341 13.468V14.5013H12.9341V12.9213H13.3141V13.1513C13.343 13.1024 13.3774 13.058 13.4174 13.018C13.453 12.9846 13.4974 12.9535 13.5507 12.9246C13.6063 12.8957 13.6707 12.8813 13.7441 12.8813Z" fill="white"/>
<path d="M14.8577 12.8813C14.9666 12.8813 15.0688 12.9013 15.1644 12.9413C15.2622 12.9813 15.3466 13.038 15.4177 13.1113C15.491 13.1824 15.5488 13.2691 15.5911 13.3713C15.6333 13.4713 15.6544 13.5824 15.6544 13.7046C15.6544 13.7202 15.6544 13.7413 15.6544 13.768C15.6544 13.7946 15.6533 13.8235 15.651 13.8546H14.4711C14.4777 13.8902 14.4933 13.9269 14.5177 13.9646C14.5422 14.0024 14.5733 14.0369 14.611 14.068C14.6488 14.0991 14.6933 14.1246 14.7444 14.1446C14.7955 14.1646 14.8522 14.1746 14.9144 14.1746C14.9833 14.1746 15.0444 14.1669 15.0977 14.1513C15.151 14.1335 15.1966 14.1146 15.2344 14.0946C15.2766 14.0702 15.3144 14.0435 15.3477 14.0146L15.5477 14.3146C15.4966 14.3569 15.4388 14.3946 15.3744 14.428C15.3188 14.4569 15.2522 14.4824 15.1744 14.5046C15.0966 14.5291 15.0099 14.5413 14.9144 14.5413C14.7944 14.5413 14.6822 14.5202 14.5777 14.478C14.4755 14.4335 14.3855 14.3746 14.3077 14.3013C14.2322 14.2257 14.1722 14.138 14.1277 14.038C14.0855 13.9357 14.0644 13.8269 14.0644 13.7113C14.0644 13.5957 14.0844 13.488 14.1244 13.388C14.1644 13.2857 14.2188 13.198 14.2877 13.1246C14.3588 13.0491 14.4433 12.9902 14.541 12.948C14.6388 12.9035 14.7444 12.8813 14.8577 12.8813ZM15.2544 13.5646C15.2522 13.5313 15.2422 13.4957 15.2244 13.458C15.2088 13.4202 15.1844 13.3857 15.151 13.3546C15.1199 13.3213 15.0799 13.2946 15.031 13.2746C14.9822 13.2546 14.9244 13.2446 14.8577 13.2446C14.7933 13.2446 14.7377 13.2546 14.691 13.2746C14.6444 13.2946 14.6044 13.3202 14.571 13.3513C14.5399 13.3824 14.5155 13.4169 14.4977 13.4546C14.4822 13.4924 14.4733 13.5291 14.4711 13.5646H15.2544Z" fill="white"/>
</svg>
