<svg width="24" height="24" viewBox="0 0 24 24" xmlns="http://www.w3.org/2000/svg">
<path d="M5.25 10.5C5.031 10.5 4.85125 10.5703 4.71075 10.7108C4.57025 10.8512 4.5 11.031 4.5 11.25V20.25C4.5 20.469 4.57025 20.6488 4.71075 20.7892C4.85125 20.9298 5.031 21 5.25 21H18.75C18.969 21 19.1488 20.9298 19.2892 20.7892C19.4298 20.6488 19.5 20.469 19.5 20.25V11.25C19.5 11.031 19.4298 10.8512 19.2892 10.7108C19.1488 10.5703 18.969 10.5 18.75 10.5H5.25ZM5.25 9H18.75C19.3905 9.0155 19.9217 9.23425 20.3438 9.65625C20.7658 10.0782 20.9845 10.6095 21 11.25V20.25C20.9845 20.8905 20.7658 21.4217 20.3438 21.8438C19.9217 22.2658 19.3905 22.4845 18.75 22.5H5.25C4.6095 22.4845 4.07825 22.2658 3.65625 21.8438C3.23425 21.4217 3.0155 20.8905 3 20.25V11.25C3.0155 10.6095 3.23425 10.0782 3.65625 9.65625C4.07825 9.23425 4.6095 9.0155 5.25 9ZM12 12.75C12.219 12.75 12.3988 12.8203 12.5392 12.9608C12.6797 13.1012 12.75 13.281 12.75 13.5V18C12.75 18.219 12.6797 18.3988 12.5392 18.5392C12.3988 18.6798 12.219 18.75 12 18.75C11.781 18.75 11.6012 18.6798 11.4608 18.5392C11.3203 18.3988 11.25 18.219 11.25 18V13.5C11.25 13.281 11.3203 13.1012 11.4608 12.9608C11.6012 12.8203 11.781 12.75 12 12.75ZM16.5 9V7.5C16.4685 6.2185 16.031 5.156 15.1875 4.3125C14.344 3.469 13.2815 3.0315 12 3C10.7185 3.0315 9.656 3.469 8.8125 4.3125C7.969 5.156 7.5315 6.2185 7.5 7.5V9H16.5ZM12 1.5C13.703 1.547 15.117 2.133 16.242 3.258C17.367 4.383 17.953 5.797 18 7.5V10.5H6V7.5C6.047 5.797 6.633 4.383 7.758 3.258C8.883 2.133 10.297 1.547 12 1.5Z" />
</svg>
