<svg width="25" height="25" viewBox="0 0 25 25"  xmlns="http://www.w3.org/2000/svg">
<path d="M3.125 5.46875V17.9688C3.14115 18.4083 3.29583 18.7745 3.58906 19.0672C3.88229 19.3599 4.24844 19.5146 4.6875 19.5312H20.3125C20.7521 19.5151 21.1182 19.3604 21.4109 19.0672C21.7036 18.774 21.8583 18.4078 21.875 17.9688V5.46875H3.125ZM3.125 3.90625H21.875C22.3146 3.9224 22.6807 4.07708 22.9734 4.37031C23.2661 4.66354 23.4208 5.02969 23.4375 5.46875V17.9688C23.4214 18.8479 23.1161 19.5844 22.5219 20.1781C21.9276 20.7719 21.1911 21.0771 20.3125 21.0938H4.6875C3.80833 21.0776 3.07187 20.7724 2.47812 20.1781C1.88437 19.5839 1.57917 18.8474 1.5625 17.9688V5.46875C1.57865 5.02917 1.73333 4.66302 2.02656 4.37031C2.31979 4.0776 2.68594 3.92292 3.125 3.90625ZM22.0703 5.46875L16.0398 12.3781C15.5841 12.8828 15.051 13.2734 14.4406 13.55C13.8302 13.8266 13.1833 13.9648 12.5 13.9648C11.8167 13.9648 11.1698 13.8266 10.5594 13.55C9.94896 13.2734 9.41589 12.8828 8.96016 12.3781L2.92969 5.46875H22.0703ZM5.00469 5.46875L10.1562 11.3523C10.4495 11.694 10.7995 11.9544 11.2063 12.1336C11.613 12.3128 12.0443 12.4023 12.5 12.4023C12.9557 12.4023 13.387 12.3128 13.7937 12.1336C14.2005 11.9544 14.5505 11.694 14.8438 11.3523L19.9953 5.46875H5.00469Z" />
</svg>
