<svg width="24" height="24" viewBox="0 0 24 24" fill="none" xmlns="http://www.w3.org/2000/svg">
<circle cx="12" cy="12" r="11" stroke="#3623f0" stroke-width="2"/>
<circle cx="12" cy="12" r="3" fill="#3623f0" stroke="#3623f0" stroke-width="2"/>
</svg>
