<svg width="24" height="24" viewBox="0 0 24 24"  xmlns="http://www.w3.org/2000/svg">
<path fill-rule="evenodd" clip-rule="evenodd" d="M12.75 4.54702V3H15C15.225 3 15.375 2.925 15.525 2.775C15.675 2.625 15.75 2.475 15.75 2.25C15.75 2.025 15.675 1.875 15.525 1.725C15.375 1.575 15.225 1.5 15 1.5H9C8.775 1.5 8.625 1.575 8.475 1.725C8.325 1.875 8.25 2.025 8.25 2.25C8.25 2.475 8.325 2.625 8.475 2.775C8.625 2.925 8.775 3 9 3H11.25V4.54702C9.03463 4.76208 7.17787 5.63965 5.625 7.125C3.9 8.775 3.075 10.95 3 13.5C3.075 16.05 3.975 18.15 5.625 19.875C7.275 21.6 9.45 22.425 12 22.5C14.55 22.425 16.65 21.525 18.375 19.875C20.1 18.225 20.925 16.05 21 13.5C20.925 10.95 20.025 8.85 18.375 7.125C16.8221 5.63965 14.9654 4.76208 12.75 4.54702ZM12 6C9.9 6.075 8.1 6.75 6.675 8.175C5.25 9.6 4.575 11.4 4.5 13.5C4.575 15.6 5.25 17.4 6.675 18.825C8.1 20.25 9.9 20.925 12 21C14.1 20.925 15.9 20.25 17.325 18.825C18.75 17.4 19.425 15.6 19.5 13.5C19.5 11.325 18.75 9.6 17.325 8.175C15.9 6.75 14.1 6.075 12 6ZM12.525 7.725C12.375 7.575 12.225 7.5 12 7.5C11.775 7.5 11.625 7.575 11.475 7.725C11.325 7.875 11.25 8.025 11.25 8.25V12.2035C11.1465 12.2696 11.0482 12.3518 10.95 12.45C10.65 12.75 10.5 13.05 10.5 13.5C10.5 13.95 10.65 14.25 10.95 14.55C11.25 14.85 11.55 15 12 15C12.45 15 12.75 14.85 13.05 14.55C13.35 14.25 13.5 13.95 13.5 13.5C13.5 13.05 13.35 12.75 13.05 12.45C12.9518 12.3518 12.8535 12.2696 12.75 12.2035V8.25C12.75 8.025 12.675 7.875 12.525 7.725Z"/>
</svg>
