<svg width="24" height="24" viewBox="0 0 24 24" xmlns="http://www.w3.org/2000/svg">
<path d="M6 3V19.383L10.5938 15.7035C11.0157 15.3755 11.4845 15.2115 12 15.2115C12.5155 15.2115 12.9843 15.3755 13.4062 15.7035L18 19.383V3H6ZM5.25 1.5H18.75C18.969 1.5 19.1488 1.57025 19.2892 1.71075C19.4297 1.85125 19.5 2.031 19.5 2.25V20.9295C19.4845 21.242 19.34 21.4648 19.0665 21.5978C18.793 21.7308 18.5312 21.7035 18.2812 21.516L12.4688 16.875C12.3282 16.7655 12.172 16.7108 12 16.7108C11.828 16.7108 11.6718 16.7655 11.5312 16.875L5.71875 21.516C5.46875 21.7035 5.207 21.7308 4.9335 21.5978C4.66 21.4648 4.5155 21.242 4.5 20.9295V2.25C4.5 2.031 4.57025 1.85125 4.71075 1.71075C4.85125 1.57025 5.031 1.5 5.25 1.5Z" />
</svg>
