<svg width="375" height="503" viewBox="0 0 375 503" fill="none" xmlns="http://www.w3.org/2000/svg">
<g filter="url(#filter0_d_4275_57321)">
<path d="M61.0794 -176.539C75.5808 -184.874 93.4192 -184.874 107.921 -176.539L234.274 -103.917L360.344 -30.8023C374.813 -22.4111 383.732 -6.9626 383.764 9.76341L384.048 155.5L383.764 301.237C383.732 317.963 374.813 333.411 360.344 341.802L234.274 414.917L107.921 487.539C93.4191 495.874 75.5808 495.874 61.0794 487.539L-65.2742 414.917L-191.344 341.802C-205.813 333.411 -214.732 317.963 -214.764 301.237L-215.048 155.5L-214.764 9.76338C-214.732 -6.96263 -205.813 -22.4111 -191.344 -30.8023L-65.2742 -103.917L61.0794 -176.539Z" fill="#3623F0"/>
</g>
<path d="M192.582 56.9931L54.418 -22.4899C50.8805 -24.5034 45.1195 -24.5034 41.582 -22.4899L-96.582 56.9931C-100.119 59.0066 -103 63.99 -103 68.0674V226.983C-103 231.06 -100.119 236.044 -96.582 238.057L41.582 317.49C45.1195 319.503 50.8805 319.503 54.418 317.49L192.582 238.057C196.12 236.044 199 231.06 199 226.983V68.0674C199 63.99 196.12 59.0066 192.582 56.9931ZM139.267 82.7659C139.267 80.9538 139.975 79.2423 141.238 77.9335C142.501 76.6247 144.22 75.92 146.089 75.92C149.829 75.92 152.912 78.9403 152.912 82.7156C152.912 84.5277 152.204 86.2392 150.941 87.548C149.677 88.8568 147.959 89.5615 146.089 89.5615C142.35 89.5615 139.267 86.5412 139.267 82.7659ZM147.909 108.841C149.223 110.099 149.93 111.811 149.93 113.673C149.93 117.448 146.898 120.519 143.108 120.519C141.289 120.519 139.57 119.814 138.307 118.556C136.993 117.297 136.286 115.586 136.286 113.724C136.286 109.948 139.318 106.878 143.108 106.878C144.927 106.878 146.645 107.582 147.959 108.841H147.909ZM143.31 173.927C147.1 173.927 150.132 176.998 150.132 180.723C150.132 184.448 147.05 187.518 143.31 187.518C139.57 187.518 136.488 184.448 136.488 180.723C136.488 176.998 139.57 173.927 143.31 173.927ZM136.033 91.575C137.852 91.575 139.57 92.2797 140.884 93.5382C142.198 94.7966 142.906 96.5081 142.906 98.3706C142.906 102.146 139.874 105.216 136.083 105.216C134.264 105.216 132.546 104.512 131.283 103.253C129.969 101.995 129.261 100.283 129.261 98.4209C129.261 94.6456 132.293 91.575 136.083 91.575H136.033ZM121.883 94.7966C123.197 96.1054 123.904 97.8168 123.904 99.629C123.904 103.404 120.822 106.475 117.082 106.475C113.292 106.475 110.26 103.404 110.209 99.6793C110.209 95.904 113.292 92.8334 117.031 92.8334C118.851 92.8334 120.569 93.5382 121.883 94.8469V94.7966ZM125.269 107.28C127.088 107.331 128.806 107.985 130.12 109.243C131.434 110.502 132.142 112.213 132.142 114.076C132.142 115.888 131.434 117.599 130.171 118.908C128.907 120.217 127.189 120.922 125.319 120.922C121.58 120.922 118.497 117.902 118.497 114.126C118.497 110.351 121.529 107.28 125.319 107.28H125.269ZM106.419 187.468C104.6 187.468 102.882 186.763 101.618 185.505C100.304 184.246 99.5967 182.535 99.5967 180.672C99.5967 178.86 100.304 177.149 101.568 175.84C102.831 174.531 104.549 173.827 106.419 173.827C110.209 173.776 113.292 176.847 113.292 180.622C113.292 182.434 112.584 184.146 111.321 185.455C110.058 186.763 108.339 187.468 106.47 187.468H106.419ZM99.4957 113.875C99.4957 110.099 102.578 107.079 106.318 107.079C110.058 107.079 113.14 110.15 113.14 113.875C113.14 117.599 110.058 120.67 106.318 120.67C102.578 120.67 99.4957 117.599 99.4957 113.875ZM110.816 81.9605C112.13 83.2693 112.837 84.9808 112.837 86.7929C112.837 90.5682 109.754 93.6388 106.015 93.6388C104.195 93.6388 102.477 92.9341 101.163 91.6253C99.8494 90.3165 99.1419 88.6051 99.1419 86.7929C99.1419 84.9808 99.8494 83.2693 101.163 81.9605C102.477 80.6517 104.195 79.947 106.015 79.947C107.834 79.947 109.552 80.6517 110.866 81.9605H110.816ZM102.578 100.032C102.578 103.807 99.4957 106.827 95.756 106.827C92.0164 106.827 88.9337 103.757 88.9337 100.032C88.9337 96.3067 92.0164 93.2361 95.756 93.2361C99.4957 93.2361 102.578 96.3067 102.578 100.032ZM86.8618 108.337C90.652 108.337 93.6841 111.408 93.6841 115.133C93.6841 118.858 90.6014 121.929 86.8618 121.929C83.1222 121.929 80.0395 118.858 80.0395 115.133C80.0395 111.408 83.1222 108.337 86.8618 108.337ZM80.0395 179.565C80.0395 175.79 83.1222 172.769 86.8618 172.769C90.6014 172.769 93.6841 175.84 93.6841 179.565C93.6841 183.29 90.6014 186.361 86.8618 186.361C83.1222 186.361 80.0395 183.29 80.0395 179.565ZM92.5218 69.6782C94.341 69.6782 96.0592 70.3829 97.3732 71.6917C98.6871 73.0004 99.3946 74.7119 99.3946 76.5241C99.3946 78.3362 98.6871 80.0477 97.3732 81.3565C96.0592 82.6652 94.341 83.37 92.5218 83.37C88.7316 83.37 85.6995 80.2994 85.6995 76.5744C85.6995 74.7622 86.407 73.0508 87.7209 71.742C89.0348 70.4332 90.753 69.7285 92.5723 69.7285L92.5218 69.6782ZM81.8588 82.6149C85.6489 82.6149 88.7316 85.6855 88.7316 89.4105C88.7316 93.1355 85.6489 96.206 81.8588 96.206C78.0686 96.206 75.0365 93.1355 75.0365 89.4105C75.0365 85.6855 78.1191 82.6149 81.8588 82.6149ZM73.571 97.1625C77.3611 97.1625 80.3932 100.233 80.3932 103.958C80.3932 107.683 77.3106 110.754 73.571 110.754C69.8313 110.754 66.7487 107.683 66.7487 103.958C66.7487 100.233 69.8313 97.1625 73.571 97.1625ZM80.3932 190.639C80.3932 194.415 77.3106 197.435 73.571 197.435C69.8313 197.435 66.7487 194.364 66.7487 190.639C66.7487 186.914 69.8313 183.844 73.571 183.844C77.3106 183.844 80.3932 186.914 80.3932 190.639ZM72.5097 82.8666C72.5097 86.6419 69.4271 89.6622 65.6874 89.6622C61.9478 89.6622 58.8652 86.5916 58.8652 82.8666C58.8652 79.1416 61.9478 76.071 65.6874 76.071C69.4271 76.071 72.5097 79.1416 72.5097 82.8666ZM57.0964 91.1723C60.8866 91.1723 63.9187 94.2429 63.9187 97.9679C63.9187 101.693 60.836 104.763 57.0964 104.763C53.3568 104.763 50.2741 101.693 50.2741 97.9679C50.2741 94.2429 53.3568 91.1723 57.0964 91.1723ZM55.176 80.6014C55.176 84.3767 52.0934 87.397 48.3538 87.397C44.6141 87.397 41.5315 84.3264 41.5315 80.6014C41.5315 76.8764 44.6141 73.8058 48.3538 73.8058C52.0934 73.8058 55.176 76.8764 55.176 80.6014ZM48.8086 59.208C50.1225 60.4664 50.83 62.1779 50.83 64.0404C50.83 65.8525 50.1225 67.564 48.8591 68.8728C47.5957 70.1815 45.8775 70.8863 44.0077 70.8863C40.2681 70.8863 37.1854 67.866 37.1854 64.0907C37.1854 60.3154 40.2175 57.2448 44.0077 57.2448C45.827 57.2448 47.5452 57.9495 48.8591 59.208H48.8086ZM46.5345 98.0182C46.5345 101.794 43.4518 104.814 39.7122 104.814C35.9726 104.814 32.8899 101.743 32.8899 98.0182C32.8899 94.2932 35.9726 91.2226 39.7122 91.2226C43.4518 91.2226 46.5345 94.2932 46.5345 98.0182ZM37.8424 83.0176C37.8424 86.7929 34.7597 89.8132 31.0201 89.8132C27.2805 89.8132 24.1978 86.7426 24.1978 83.0176C24.1978 79.2926 27.2805 76.222 31.0201 76.222C34.7597 76.222 37.8424 79.2926 37.8424 83.0176ZM34.1028 66.6579C34.1028 70.4332 31.0706 73.5038 27.2805 73.5038C23.5409 73.5038 20.4582 70.4836 20.4582 66.7082C20.4582 64.8961 21.1657 63.1846 22.4291 61.8758C23.6924 60.5671 25.4107 59.8623 27.2805 59.8623C31.0201 59.8623 34.1028 62.8826 34.1028 66.6579ZM23.3892 97.1625C27.1794 97.1625 30.2115 100.233 30.2115 103.958C30.2115 107.683 27.1289 110.754 23.3892 110.754C19.6496 110.754 16.5669 107.683 16.5669 103.958C16.5669 100.233 19.6496 97.1625 23.3892 97.1625ZM21.8226 89.7125C21.8226 93.4878 18.74 96.5081 15.0004 96.5081C11.2607 96.5081 8.17805 93.4375 8.17805 89.7125C8.17805 85.9875 11.2607 82.9169 15.0004 82.9169C18.74 82.9169 21.8226 85.9875 21.8226 89.7125ZM9.94681 108.438C13.737 108.438 16.7691 111.509 16.7691 115.234C16.7691 118.959 13.6864 122.029 9.94681 122.029C6.20718 122.029 3.12451 118.959 3.12451 115.234C3.12451 111.509 6.20718 108.438 9.94681 108.438ZM4.23629 144.027C6.15664 147.248 5.04486 151.477 1.81059 153.339C0.749346 153.943 -0.412972 154.296 -1.62582 154.296C-2.18171 154.296 -2.78814 154.245 -3.34403 154.094C-5.11277 153.641 -6.57831 152.534 -7.53848 150.923C-8.44812 149.362 -8.7008 147.5 -8.24598 145.738C-7.79116 143.976 -6.67937 142.517 -5.06224 141.56C-1.82797 139.647 2.41701 140.755 4.28682 143.976L4.23629 144.027ZM4.64057 136.174C3.57932 136.828 2.36647 137.13 1.20415 137.13C-1.17102 137.13 -3.4451 135.922 -4.70849 133.758C-6.62884 130.536 -5.51706 126.308 -2.28279 124.445C-0.71619 123.539 1.15362 123.288 2.92236 123.741C4.6911 124.194 6.15664 125.301 7.11681 126.912C9.03716 130.134 7.92538 134.362 4.69111 136.224L4.64057 136.174ZM1.4063 171.36C-0.968869 171.36 -3.24296 170.152 -4.50634 167.987C-6.42669 164.766 -5.31491 160.537 -2.08064 158.675C1.15363 156.762 5.3986 157.87 7.26841 161.091C9.18876 164.313 8.07698 168.541 4.84271 170.404C3.78147 171.058 2.56861 171.36 1.4063 171.36ZM3.07398 179.515C3.07398 175.739 6.15663 172.719 9.89626 172.719C13.6359 172.719 16.7186 175.79 16.7186 179.515C16.7186 183.24 13.6359 186.31 9.89626 186.31C6.15663 186.31 3.07398 183.24 3.07398 179.515ZM7.87485 100.233C7.87485 104.008 4.79218 107.029 1.05255 107.029C-2.68707 107.029 -5.76973 103.958 -5.76973 100.233C-5.76973 96.5081 -2.68707 93.4375 1.05255 93.4375C4.79218 93.4375 7.87485 96.5081 7.87485 100.233ZM3.93307 81.4571C3.93307 83.2693 3.22558 84.9808 1.96219 86.2895C0.698804 87.5983 -1.0194 88.303 -2.88921 88.303C-6.62884 88.303 -9.71151 85.2828 -9.71151 81.5075C-9.71151 79.6953 -9.004 77.9839 -7.74061 76.6751C-6.47722 75.3663 -4.75902 74.6616 -2.88921 74.6616C0.900951 74.7119 3.98362 77.6818 3.98362 81.4571H3.93307ZM-2.68706 114.076C-2.68706 117.851 -5.76974 120.871 -9.50936 120.871C-13.249 120.871 -16.3316 117.801 -16.3316 114.076C-16.3316 110.351 -13.249 107.28 -9.50936 107.28C-5.76974 107.28 -2.68706 110.351 -2.68706 114.076ZM-25.0238 145.738C-24.5689 143.976 -23.4571 142.517 -21.84 141.56C-18.6057 139.647 -14.3608 140.755 -12.491 143.976C-10.5706 147.198 -11.6824 151.426 -14.9167 153.289C-15.9779 153.893 -17.1402 154.245 -18.3531 154.245C-18.909 154.245 -19.5154 154.195 -20.0713 154.044C-21.84 153.591 -23.3055 152.483 -24.2657 150.873C-25.1754 149.312 -25.428 147.45 -24.9732 145.688L-25.0238 145.738ZM-19.5659 124.395C-17.9993 123.489 -16.1295 123.237 -14.3608 123.69C-12.592 124.143 -11.1265 125.251 -10.1663 126.862C-8.24598 130.083 -9.35776 134.312 -12.592 136.174C-13.6533 136.828 -14.8661 137.13 -16.0284 137.13C-18.4036 137.13 -20.6777 135.922 -21.9411 133.758C-22.8507 132.197 -23.1034 130.335 -22.6486 128.573C-22.1938 126.811 -21.082 125.351 -19.4648 124.395H-19.5659ZM-21.8906 161.292C-20.9809 159.732 -19.4648 158.625 -17.6961 158.121C-15.9274 157.668 -14.1081 157.92 -12.491 158.826C-9.25669 160.739 -8.14491 164.917 -10.0653 168.138C-11.3286 170.303 -13.6533 171.511 -15.9779 171.511C-17.1402 171.511 -18.3531 171.209 -19.4143 170.555C-22.6486 168.642 -23.7604 164.464 -21.84 161.242L-21.8906 161.292ZM-8.2965 93.2361C-8.2965 97.0114 -11.3286 100.082 -15.1188 100.082C-16.9381 100.082 -18.6563 99.3773 -19.9197 98.1189C-21.2336 96.8604 -21.9411 95.149 -21.9411 93.2865C-21.9411 91.4743 -21.2336 89.7628 -19.9702 88.4541C-18.7068 87.1453 -16.9886 86.4406 -15.1188 86.4406C-11.3792 86.4406 -8.2965 89.4608 -8.2965 93.2361ZM-24.8722 100.334C-21.1325 100.384 -17.9993 103.354 -17.9993 107.129C-17.9993 108.941 -18.7068 110.653 -19.9702 111.962C-21.2336 113.27 -22.9518 113.975 -24.8216 113.975C-28.5612 113.975 -31.6439 110.955 -31.6439 107.18C-31.6439 103.404 -28.6118 100.334 -24.8216 100.334H-24.8722ZM-31.5428 115.787C-29.673 115.687 -28.0053 116.492 -26.6914 117.751C-25.3775 119.009 -24.67 120.72 -24.67 122.583C-24.67 126.358 -27.7021 129.429 -31.4923 129.429C-35.2319 129.429 -38.3146 126.409 -38.3146 122.633C-38.3146 118.858 -35.2825 115.787 -31.4923 115.787H-31.5428ZM-34.9287 132.197C-31.1891 132.197 -28.1064 135.218 -28.1064 138.993C-28.1064 140.805 -28.8139 142.517 -30.0773 143.825C-31.3407 145.134 -33.0589 145.839 -34.9287 145.839C-38.6683 145.839 -41.751 142.819 -41.751 139.043C-41.751 135.268 -38.7189 132.197 -34.9287 132.197ZM-41.6499 156.007C-41.6499 152.232 -38.5673 149.211 -34.8276 149.211C-31.088 149.211 -28.0053 152.282 -28.0053 156.007C-28.0053 159.732 -31.088 162.803 -34.8276 162.803C-38.5673 162.803 -41.6499 159.732 -41.6499 156.007ZM-38.2135 172.417C-38.2135 168.642 -35.1308 165.621 -31.3912 165.621C-27.6516 165.621 -24.5689 168.692 -24.5689 172.417C-24.5689 176.142 -27.6516 179.213 -31.3912 179.213C-35.1308 179.213 -38.2135 176.142 -38.2135 172.417ZM-31.4923 187.82C-31.4923 184.045 -28.4096 181.025 -24.67 181.025C-20.9304 181.025 -17.8477 184.095 -17.8477 187.82C-17.8477 191.545 -20.9304 194.616 -24.67 194.616C-28.4096 194.616 -31.4923 191.545 -31.4923 187.82ZM-21.7389 201.663C-21.7389 197.888 -18.6563 194.868 -14.9167 194.868C-11.177 194.868 -8.09436 197.938 -8.09436 201.663C-8.09436 205.388 -11.177 208.459 -14.9167 208.459C-18.6563 208.459 -21.7389 205.388 -21.7389 201.663ZM-16.2811 180.823C-16.2811 177.048 -13.1984 174.028 -9.45882 174.028C-5.71919 174.028 -2.63654 177.098 -2.63654 180.823C-2.63654 184.548 -5.71919 187.619 -9.45882 187.619C-13.1984 187.619 -16.2811 184.548 -16.2811 180.823ZM-9.40829 213.342C-9.40829 209.566 -6.32563 206.546 -2.58601 206.546C1.15362 206.546 4.23629 209.617 4.23629 213.342C4.23629 217.066 1.15362 220.137 -2.58601 220.137C-6.32563 220.137 -9.40829 217.066 -9.40829 213.342ZM6.00503 199.398C4.74164 200.707 3.02344 201.411 1.15362 201.411C-2.586 201.411 -5.66866 198.391 -5.66866 194.616C-5.66866 190.841 -2.63654 187.77 1.15362 187.77C4.89325 187.72 8.02645 190.79 8.02645 194.566C8.02645 196.378 7.31896 198.089 6.05557 199.398H6.00503ZM4.89326 222.201C4.89326 218.426 7.97591 215.405 11.7155 215.405C15.4552 215.405 18.5378 218.476 18.5378 222.201C18.5378 225.926 15.4552 228.996 11.7155 228.996C7.97591 228.996 4.89326 225.926 4.89326 222.201ZM19.9023 209.919C18.6389 211.227 16.9207 211.932 15.0509 211.932C13.2316 211.932 11.5134 211.227 10.25 209.969C8.93608 208.71 8.2286 206.999 8.2286 205.136C8.2286 201.361 11.2607 198.291 15.0509 198.291C18.7905 198.24 21.9237 201.311 21.9237 205.086C21.9237 206.898 21.2162 208.61 19.9528 209.919H19.9023ZM23.2882 197.485C19.498 197.485 16.4659 194.415 16.4659 190.69C16.4659 186.965 19.5485 183.894 23.2882 183.894C27.0278 183.894 30.1105 186.965 30.1105 190.69C30.1105 194.415 27.0278 197.485 23.2882 197.485ZM24.2989 211.781C24.2989 209.969 25.0064 208.257 26.2698 206.949C27.5332 205.64 29.2514 204.935 31.1212 204.935C34.9113 204.935 37.994 207.955 37.994 211.731C37.994 213.543 37.2865 215.254 36.0231 216.563C34.7597 217.872 33.0415 218.577 31.1717 218.577C27.4321 218.577 24.3494 215.556 24.3494 211.781H24.2989ZM46.484 196.68C46.484 200.455 43.4013 203.475 39.6617 203.475C35.922 203.475 32.8394 200.405 32.8394 196.68C32.8394 192.955 35.922 189.884 39.6617 189.884C43.4013 189.884 46.484 192.955 46.484 196.68ZM37.5392 230.658C37.5392 226.882 40.6218 223.862 44.3615 223.862C48.1011 223.862 51.1838 226.933 51.1838 230.658C51.1838 234.383 48.1011 237.453 44.3615 237.453C40.6218 237.453 37.5392 234.383 37.5392 230.658ZM53.3062 218.929C52.0428 220.238 50.3246 220.942 48.4548 220.942C46.6356 220.942 44.9173 220.238 43.654 218.979C42.34 217.721 41.6325 216.009 41.6325 214.147C41.6325 212.335 42.34 210.623 43.6034 209.314C44.8668 208.006 46.585 207.301 48.4548 207.301C52.1945 207.301 55.3276 210.321 55.3276 214.097C55.3276 215.909 54.6202 217.62 53.3568 218.929H53.3062ZM56.9953 203.526C53.2052 203.526 50.173 200.455 50.173 196.73C50.173 193.005 53.2557 189.935 56.9953 189.935C60.7349 189.935 63.8176 193.005 63.8176 196.73C63.8176 200.455 60.7349 203.526 56.9953 203.526ZM60.9371 216.613C59.6232 215.355 58.9157 213.644 58.9157 211.781C58.9157 208.006 61.9478 204.935 65.738 204.935C69.4776 204.935 72.5603 207.955 72.5603 211.731C72.5603 213.543 71.8528 215.254 70.5894 216.563C69.326 217.872 67.6078 218.577 65.738 218.577C63.9187 218.577 62.2005 217.872 60.9371 216.613ZM70.741 225.523C70.741 221.748 73.8236 218.728 77.5633 218.728C81.3029 218.728 84.3855 221.798 84.3855 225.523C84.3855 229.248 81.3029 232.319 77.5633 232.319C73.8236 232.319 70.741 229.248 70.741 225.523ZM86.7607 209.969C85.4973 211.278 83.7791 211.982 81.9093 211.982C80.09 211.982 78.3718 211.278 77.1085 210.019C75.7945 208.761 75.087 207.049 75.087 205.187C75.087 201.411 78.1192 198.341 81.9093 198.341C85.6489 198.341 88.7316 201.361 88.7316 205.136C88.7316 206.949 88.0241 208.66 86.7607 209.969ZM85.75 218.124C85.75 214.348 88.8327 211.328 92.5723 211.328C96.3119 211.328 99.3946 214.399 99.3946 218.124C99.3946 221.849 96.3119 224.919 92.5723 224.919C88.8327 224.919 85.75 221.849 85.75 218.124ZM88.8832 194.566C88.8832 192.753 89.5907 191.042 90.8541 189.733C92.1175 188.424 93.8357 187.72 95.7055 187.72C97.5248 187.72 99.243 188.424 100.506 189.683C101.82 190.941 102.528 192.653 102.528 194.515C102.528 198.291 99.4957 201.361 95.7055 201.361C91.9659 201.361 88.8832 198.341 88.8832 194.566ZM99.1924 207.855C99.1924 204.079 102.275 201.059 106.015 201.059C109.754 201.059 112.837 204.13 112.837 207.855C112.837 211.58 109.754 214.65 106.015 214.65C102.275 214.65 99.1924 211.58 99.1924 207.855ZM117.082 201.814C113.292 201.814 110.26 198.744 110.26 195.019C110.26 191.294 113.342 188.223 117.082 188.223C120.822 188.223 123.904 191.294 123.904 195.019C123.904 198.744 120.822 201.814 117.082 201.814ZM125.37 187.116C121.58 187.116 118.548 184.045 118.548 180.32C118.548 176.595 121.63 173.525 125.37 173.525C129.109 173.525 132.192 176.595 132.192 180.32C132.192 184.045 129.109 187.116 125.37 187.116ZM119.508 84.3264C119.508 80.5511 122.54 77.4805 126.33 77.4805C130.07 77.4805 133.152 80.5007 133.152 84.276C133.152 88.0514 130.12 91.122 126.33 91.122C124.511 91.122 122.793 90.4172 121.529 89.1588C120.215 87.9003 119.508 86.1889 119.508 84.3264ZM114.454 65.1981C118.194 65.1981 121.276 68.2184 121.276 71.9937C121.276 73.8058 120.569 75.5173 119.306 76.8261C118.042 78.1349 116.324 78.8396 114.454 78.8396C110.715 78.8396 107.632 75.8193 107.632 72.044C107.632 68.2687 110.664 65.1981 114.454 65.1981ZM102.225 47.6303C102.225 45.8182 102.932 44.1067 104.195 42.7979C105.459 41.4891 107.177 40.7844 109.047 40.7844C112.787 40.7844 115.869 43.8047 115.869 47.58C115.869 51.3553 112.837 54.4259 109.047 54.4259C105.307 54.4259 102.225 51.4056 102.225 47.6303ZM107.531 61.9765C107.531 65.7518 104.499 68.8224 100.709 68.8224C98.8892 68.8224 97.1711 68.1177 95.9077 66.8593C94.5937 65.6008 93.8862 63.8893 93.8862 62.0269C93.8862 60.2147 94.5937 58.5032 95.8571 57.1944C97.1205 55.8857 98.8387 55.1809 100.709 55.1809C104.448 55.1809 107.531 58.2012 107.531 61.9765ZM87.064 39.7777C87.064 36.0023 90.0961 32.9318 93.8862 32.9318C95.7055 32.9318 97.4237 33.6365 98.6871 34.8949C100.001 36.1534 100.709 37.8648 100.709 39.7273C100.709 41.5395 100.001 43.251 98.7376 44.5597C97.4743 45.8685 95.7561 46.5732 93.8862 46.5732C90.1466 46.5732 87.064 43.553 87.064 39.7777ZM78.675 54.4762C78.675 52.6641 79.3825 50.9526 80.6459 49.6438C81.9093 48.335 83.6275 47.6303 85.4973 47.6303C89.237 47.6303 92.3196 50.6506 92.3196 54.4259C92.3196 56.238 91.6121 57.9495 90.3487 59.2583C89.0853 60.5671 87.3671 61.2718 85.4973 61.2718C81.7577 61.2718 78.675 58.2515 78.675 54.4762ZM77.0579 62.2282C80.7975 62.2282 83.8802 65.2485 83.8802 69.0238C83.8802 70.8359 83.1727 72.5474 81.9093 73.8562C80.6459 75.165 78.9277 75.8697 77.0579 75.8697C73.3183 75.8697 70.2356 72.8494 70.2356 69.0741C70.2356 65.2988 73.2678 62.2282 77.0579 62.2282ZM64.3735 54.2749C63.0596 53.0164 62.3521 51.305 62.3521 49.4425C62.3521 45.6672 65.3842 42.5966 69.1744 42.5966C72.914 42.5966 75.9967 45.6168 75.9967 49.3921C75.9967 51.2043 75.2892 52.9158 74.0258 54.2245C72.7624 55.5333 71.0442 56.238 69.1744 56.238C67.3551 56.238 65.6369 55.5333 64.3735 54.2749ZM55.8835 60.0637C57.1469 58.7549 58.8651 58.0502 60.7349 58.0502C64.4746 58.0502 67.6078 61.0704 67.6078 64.8458C67.6078 68.6211 64.5756 71.6917 60.7855 71.6917C57.0459 71.6917 53.9632 68.6714 53.9632 64.8961C53.9632 63.0839 54.6707 61.3725 55.9341 60.0637H55.8835ZM52.245 40.6334C56.0352 40.6837 59.1178 43.6536 59.1178 47.429C59.1178 49.2411 58.4103 50.9526 57.1469 52.2614C55.8835 53.5701 54.1653 54.2749 52.2955 54.2749C50.4762 54.2749 48.7581 53.5701 47.4947 52.3117C46.1807 51.0533 45.4732 49.3418 45.4732 47.4793C45.4732 43.704 48.5054 40.6334 52.2955 40.6334H52.245ZM36.7811 30.7672C36.7811 26.9919 39.8638 23.9717 43.6034 23.9717C47.3431 23.9717 50.4257 27.0423 50.4257 30.7672C50.4257 34.4922 47.3431 37.5628 43.6034 37.5628C39.8638 37.5628 36.7811 34.4922 36.7811 30.7672ZM34.6587 41.3885C36.4779 41.2374 38.2467 41.7912 39.6617 42.9489C41.0766 44.1067 41.9357 45.7678 42.0874 47.58C42.239 49.3921 41.6831 51.1539 40.5208 52.5634C39.3585 53.9728 37.6908 54.8286 35.8715 54.9796C35.6694 54.9796 35.4672 54.9796 35.2651 54.9796C31.7781 54.9796 28.746 52.3117 28.4428 48.7377C28.1396 45.0128 30.919 41.6905 34.6587 41.3381V41.3885ZM19.9528 32.6801C19.9528 28.9048 23.0355 25.8845 26.7751 25.8845C30.5147 25.8845 33.5974 28.9551 33.5974 32.6801C33.5974 36.405 30.5147 39.4756 26.7751 39.4756C23.0355 39.4756 19.9528 36.405 19.9528 32.6801ZM14.1918 56.9428C12.7768 55.785 11.9177 54.1239 11.7661 52.3117C11.6145 50.4996 12.1704 48.7377 13.3327 47.3283C14.495 45.9188 16.1627 45.0631 17.9819 44.9121C19.8012 44.7611 21.57 45.3148 22.9849 46.4726C24.3999 47.6303 25.259 49.2915 25.4107 51.1036C25.7139 54.8286 22.9344 58.1509 19.1948 58.5032C18.9926 58.5032 18.7905 58.5032 18.5884 58.5032C16.9712 58.5032 15.4552 57.9495 14.1918 56.8924V56.9428ZM11.1596 65.8525C14.8487 65.8525 18.0325 68.8728 18.0325 72.6481C18.0325 76.4234 15.0004 79.494 11.2102 79.494C9.39092 79.494 7.67271 78.7893 6.40932 77.5308C5.0954 76.2724 4.38789 74.5609 4.38789 72.6984C4.38789 68.9231 7.42003 65.8525 11.2102 65.8525H11.1596ZM2.16434 51.4056C3.98362 51.2546 5.75235 51.8083 7.16734 52.9661C8.58233 54.1239 9.44145 55.785 9.59306 57.5971C9.74467 59.4093 9.18877 61.1711 8.02645 62.5806C6.86414 63.99 5.19646 64.8458 3.37718 64.9968C3.17504 64.9968 2.9729 64.9968 2.77076 64.9968C-0.71619 64.9968 -3.74831 62.3289 -4.05152 58.7549C-4.35474 55.0299 -1.57529 51.7077 2.16434 51.3553V51.4056ZM-12.2888 43.704C-12.2888 39.9287 -9.20616 36.9084 -5.46653 36.9084C-1.7269 36.9084 1.35577 39.979 1.35577 43.704C1.35577 47.429 -1.7269 50.4996 -5.46653 50.4996C-9.20616 50.4996 -12.2888 47.429 -12.2888 43.704ZM-16.079 72.346C-17.494 71.1883 -18.3531 69.5271 -18.5047 67.715C-18.6563 65.9028 -18.1004 64.141 -16.9381 62.7316C-15.7758 61.3221 -14.1081 60.4664 -12.2888 60.3154C-8.54919 60.0134 -5.21384 62.7819 -4.86009 66.5069C-4.55688 70.2319 -7.33633 73.5542 -11.076 73.9065C-11.2781 73.9065 -11.4802 73.9065 -11.6824 73.9065C-13.2995 73.9065 -14.8156 73.3528 -16.079 72.2957V72.346ZM-25.0743 71.5406C-21.3347 71.2386 -17.9993 74.0072 -17.6456 77.7322C-17.494 79.5443 -18.0499 81.3061 -19.2122 82.7156C-20.3745 84.125 -22.0422 84.9808 -23.8614 85.1318C-24.0636 85.1318 -24.2657 85.1318 -24.4679 85.1318C-27.9548 85.1318 -30.9869 82.4639 -31.2901 78.8899C-31.5934 75.165 -28.8139 71.8427 -25.0743 71.4903V71.5406ZM-37.6071 68.7721C-39.0221 67.6143 -39.8812 65.9532 -40.0328 64.141C-40.1844 62.3289 -39.6285 60.5671 -38.4662 59.1576C-37.3039 57.7482 -35.6362 56.8924 -33.8169 56.7414C-30.0773 56.4394 -26.742 59.208 -26.3882 62.9329C-26.085 66.6579 -28.8645 69.9802 -32.6041 70.3325C-32.8062 70.3325 -33.0084 70.3325 -33.2105 70.3325C-34.8276 70.3325 -36.3437 69.7788 -37.6071 68.7217V68.7721ZM-41.9026 92.179C-42.2058 88.4541 -39.4264 85.1318 -35.6867 84.7794C-31.9471 84.4774 -28.6118 87.246 -28.258 90.9709C-27.9548 94.6959 -30.7343 98.0182 -34.4739 98.3706C-34.676 98.3706 -34.8782 98.3706 -35.0803 98.3706C-38.5673 98.3706 -41.5994 95.7027 -41.9026 92.1287V92.179ZM-44.0251 99.7297C-40.2855 99.4276 -36.9501 102.196 -36.5964 105.921C-36.2932 109.646 -39.0726 112.968 -42.8122 113.321C-43.0144 113.321 -43.2165 113.321 -43.4187 113.321C-46.9056 113.321 -49.9377 110.653 -50.2409 107.079C-50.5442 103.354 -47.7647 100.032 -44.0251 99.6793V99.7297ZM-56.6084 134.312C-55.345 133.003 -53.6268 132.298 -51.757 132.298C-48.0174 132.298 -44.9347 135.318 -44.9347 139.094C-44.9347 142.869 -47.9669 145.94 -51.757 145.94C-53.5763 145.94 -55.2945 145.235 -56.5579 143.976C-57.8718 142.718 -58.5793 141.006 -58.5793 139.144C-58.5793 137.332 -57.8718 135.62 -56.6084 134.312ZM-49.0281 129.227C-52.5151 129.227 -55.5472 126.56 -55.8504 122.986C-56.002 121.173 -55.4461 119.412 -54.2838 118.002C-53.1215 116.593 -51.4538 115.737 -49.6345 115.586C-47.8153 115.435 -46.0465 115.989 -44.6315 117.146C-43.2165 118.304 -42.3574 119.965 -42.2058 121.778C-42.0542 123.59 -42.6101 125.351 -43.7724 126.761C-44.9347 128.17 -46.6024 129.026 -48.4217 129.177C-48.6238 129.177 -48.826 129.177 -49.0281 129.177V129.227ZM-58.6298 156.108C-58.6298 152.332 -55.5472 149.312 -51.8076 149.312C-48.0679 149.312 -44.9853 152.383 -44.9853 156.108C-44.9853 159.833 -48.0679 162.903 -51.8076 162.903C-55.5472 162.903 -58.6298 159.833 -58.6298 156.108ZM-55.6988 172.165C-55.5472 170.353 -54.6881 168.692 -53.3236 167.534C-51.9086 166.377 -50.1399 165.773 -48.3206 165.924C-44.581 166.226 -41.751 169.548 -42.0542 173.273C-42.2058 175.085 -43.0649 176.746 -44.4294 177.904C-45.6928 178.961 -47.2088 179.515 -48.826 179.515C-49.0281 179.515 -49.2302 179.515 -49.3819 179.515C-53.1215 179.213 -55.9515 175.89 -55.6483 172.165H-55.6988ZM-58.4277 95.7027C-59.8427 94.5449 -60.7018 92.8838 -60.8534 91.0716C-61.1566 87.3466 -58.3772 84.0244 -54.6375 83.672C-52.8183 83.521 -51.0495 84.0747 -49.6345 85.2325C-48.2195 86.3902 -47.3604 88.0514 -47.2088 89.8635C-47.0572 91.6757 -47.6131 93.4375 -48.7754 94.8469C-49.9377 96.2564 -51.6054 97.1121 -53.4247 97.2631C-53.6268 97.2631 -53.829 97.2631 -54.0311 97.2631C-55.6482 97.2631 -57.1643 96.7094 -58.4277 95.6523V95.7027ZM-68.1811 106.576C-68.3327 104.763 -67.7768 103.002 -66.6145 101.592C-65.4521 100.183 -63.7845 99.327 -61.9652 99.176C-60.1459 99.0249 -58.3772 99.5787 -56.9622 100.736C-55.5472 101.894 -54.6881 103.555 -54.5365 105.367C-54.3849 107.18 -54.9407 108.941 -56.1031 110.351C-57.2654 111.76 -58.9331 112.616 -60.7523 112.767C-60.9545 112.767 -61.1566 112.767 -61.3588 112.767C-64.8457 112.767 -67.8778 110.099 -68.1811 106.525V106.576ZM-68.6864 145.94C-72.426 145.94 -75.5087 142.919 -75.5087 139.144C-75.5087 135.369 -72.4766 132.298 -68.6864 132.298C-64.9468 132.298 -61.8641 135.318 -61.8641 139.094C-61.8641 140.906 -62.5716 142.617 -63.835 143.926C-65.0984 145.235 -66.8166 145.94 -68.6864 145.94ZM-56.659 194.566C-57.9223 195.623 -59.4384 196.176 -61.0556 196.176C-61.2577 196.176 -61.4598 196.176 -61.6114 196.176C-65.3511 195.874 -68.1811 192.552 -67.8778 188.827C-67.7262 187.015 -66.8671 185.354 -65.5027 184.196C-64.1382 183.038 -62.3189 182.485 -60.4997 182.585C-56.76 182.887 -53.93 186.21 -54.2333 189.935C-54.3849 191.747 -55.244 193.408 -56.6084 194.566H-56.659ZM-47.0067 205.237C-47.3099 208.811 -50.2915 211.479 -53.829 211.479C-54.0311 211.479 -54.2333 211.479 -54.3849 211.479C-58.1245 211.177 -60.9545 207.855 -60.6513 204.13C-60.3481 200.405 -57.0127 197.586 -53.2731 197.888C-49.5335 198.19 -46.7035 201.512 -47.0067 205.237ZM-38.7694 193.861C-40.0328 194.918 -41.5489 195.472 -43.166 195.472C-43.3681 195.472 -43.5703 195.472 -43.7219 195.472C-45.5412 195.321 -47.2088 194.465 -48.3711 193.106C-49.5335 191.747 -50.1399 189.935 -49.9883 188.122C-49.6851 184.397 -46.3497 181.579 -42.6101 181.881C-40.7908 182.032 -39.1232 182.887 -37.9608 184.246C-36.7985 185.606 -36.1921 187.418 -36.3437 189.23C-36.4953 191.042 -37.3544 192.703 -38.7189 193.861H-38.7694ZM-35.3835 210.17C-39.1231 209.868 -41.9531 206.546 -41.6499 202.821C-41.3467 199.096 -38.0114 196.277 -34.2717 196.579C-30.5321 196.881 -27.7021 200.203 -28.0053 203.928C-28.157 205.741 -29.0161 207.402 -30.3805 208.559C-31.6439 209.617 -33.16 210.17 -34.7771 210.17C-34.9792 210.17 -35.1814 210.17 -35.333 210.17H-35.3835ZM-27.8537 227.033C-26.6409 228.392 -26.085 230.154 -26.2366 231.966C-26.3882 233.779 -27.1968 235.44 -28.6118 236.648C-29.8752 237.705 -31.4418 238.309 -33.0589 238.309C-33.2105 238.309 -33.4126 238.309 -33.5642 238.309C-35.3835 238.158 -37.0512 237.352 -38.264 235.943C-39.4769 234.584 -40.0328 232.822 -39.8812 231.01C-39.7296 229.198 -38.921 227.537 -37.506 226.329C-36.091 225.12 -34.3728 224.567 -32.5535 224.718C-30.7343 224.869 -29.0666 225.674 -27.8537 227.084V227.033ZM-17.3424 217.167C-17.494 218.979 -18.3531 220.64 -19.7175 221.798C-20.9809 222.855 -22.497 223.409 -24.1141 223.409C-24.3163 223.409 -24.5184 223.409 -24.67 223.409C-28.4096 223.107 -31.2396 219.785 -30.9364 216.06C-30.7848 214.248 -29.9257 212.586 -28.5612 211.429C-27.1462 210.271 -25.3775 209.667 -23.5582 209.818C-21.7389 209.969 -20.0713 210.825 -18.909 212.184C-17.7467 213.593 -17.1402 215.355 -17.2918 217.167H-17.3424ZM-11.8845 234.634C-13.7038 234.483 -15.3715 233.628 -16.5338 232.268C-17.6961 230.909 -18.3025 229.097 -18.1509 227.285C-17.9993 225.473 -17.1402 223.812 -15.7758 222.654C-14.3608 221.496 -12.592 220.892 -10.7728 221.043C-8.95347 221.194 -7.28579 222.05 -6.12348 223.409C-4.96116 224.768 -4.35474 226.58 -4.50634 228.392C-4.80956 231.966 -7.79116 234.634 -11.3286 234.634C-11.5308 234.634 -11.7329 234.634 -11.8845 234.634ZM-0.210836 246.866C1.00202 248.225 1.5579 249.987 1.4063 251.799C1.25469 253.612 0.446137 255.273 -0.968856 256.481C-2.23224 257.538 -3.79885 258.142 -5.41598 258.142C-5.56759 258.142 -5.76974 258.142 -5.92135 258.142C-7.74063 257.991 -9.40828 257.186 -10.6211 255.776C-11.834 254.367 -12.3899 252.655 -12.2383 250.843C-12.0867 249.031 -11.2781 247.37 -9.86311 246.162C-8.49865 244.953 -6.72991 244.4 -4.91064 244.551C-3.09136 244.702 -1.42369 245.507 -0.210836 246.917V246.866ZM7.47056 241.984C6.20717 243.041 4.69111 243.594 3.07398 243.594C2.87184 243.594 2.66969 243.594 2.51808 243.594C-1.22154 243.292 -4.05154 239.97 -3.74832 236.245C-3.59672 234.433 -2.73761 232.772 -1.37315 231.614C-0.00869149 230.456 1.81059 229.852 3.62987 230.003C7.3695 230.305 10.1995 233.628 9.89626 237.352C9.74465 239.165 8.88554 240.826 7.52109 241.984H7.47056ZM17.325 258.595C17.1734 260.407 16.3648 262.068 14.9498 263.276C13.6864 264.333 12.1198 264.937 10.5027 264.937C10.3511 264.937 10.1489 264.937 9.99733 264.937C6.25771 264.635 3.37719 261.364 3.6804 257.639C3.98361 253.914 7.26842 251.044 11.008 251.346C14.7477 251.648 17.6282 254.92 17.325 258.645V258.595ZM25.7644 243.544C25.6128 245.356 24.7537 247.017 23.3892 248.175C22.1259 249.232 20.6098 249.786 18.9926 249.786C18.7905 249.786 18.5884 249.786 18.4368 249.786C14.6971 249.484 11.8671 246.162 12.1704 242.437C12.322 240.624 13.1811 238.963 14.5455 237.806C15.9605 236.648 17.7293 236.094 19.5485 236.195C23.2882 236.497 26.1182 239.819 25.8149 243.544H25.7644ZM27.331 235.037C23.5408 235.037 20.5087 231.966 20.5087 228.241C20.5087 224.516 23.5914 221.446 27.331 221.446C31.0706 221.446 34.1533 224.516 34.1533 228.241C34.1533 231.966 31.0706 235.037 27.331 235.037ZM40.0154 251.9C38.752 252.957 37.236 253.511 35.6188 253.511C35.4167 253.511 35.2145 253.511 35.0629 253.511C31.3233 253.209 28.4933 249.887 28.7965 246.162C28.9481 244.349 29.8072 242.688 31.1717 241.531C32.5867 240.373 34.3554 239.769 36.1747 239.92C39.9143 240.222 42.7443 243.544 42.4411 247.269C42.2895 249.081 41.4304 250.742 40.0659 251.9H40.0154ZM50.5268 264.031C50.5268 267.807 47.4441 270.827 43.7045 270.827C39.9649 270.827 36.8822 267.756 36.8822 264.031C36.8822 260.306 39.9649 257.236 43.7045 257.236C47.4441 257.236 50.5268 260.306 50.5268 264.031ZM59.421 247.47C59.421 251.246 56.3384 254.266 52.5987 254.266C48.8591 254.266 45.7765 251.195 45.7765 247.47C45.7765 243.745 48.8591 240.675 52.5987 240.675C56.3384 240.675 59.421 243.745 59.421 247.47ZM61.0382 236.748C57.248 236.748 54.2159 233.678 54.2159 229.953C54.2159 226.228 57.2986 223.157 61.0382 223.157C64.7778 223.157 67.911 226.228 67.911 229.953C67.911 233.678 64.8283 236.748 61.0382 236.748ZM69.4776 252.001C65.6874 252.001 62.6553 248.93 62.6553 245.205C62.6553 241.48 65.738 238.41 69.4776 238.41C73.2172 238.41 76.2999 241.48 76.2999 245.205C76.2999 248.93 73.2172 252.001 69.4776 252.001ZM84.6382 260.457C84.6382 264.233 81.5556 267.253 77.7654 267.253C73.9752 267.253 70.9431 264.182 70.9431 260.457C70.9431 256.732 74.0258 253.662 77.7654 253.662C81.505 253.662 84.6382 256.732 84.6382 260.457ZM85.8006 247.168C82.0104 247.168 78.9782 244.098 78.9782 240.373C78.9782 236.648 82.0609 233.577 85.8006 233.577C89.5402 233.577 92.6229 236.648 92.6229 240.373C92.6229 244.098 89.5402 247.168 85.8006 247.168ZM100.961 254.92C100.961 258.696 97.8785 261.716 94.1389 261.716C90.3993 261.716 87.3166 258.645 87.3166 254.92C87.3166 251.195 90.3993 248.125 94.1389 248.125C97.8785 248.125 100.961 251.195 100.961 254.92ZM107.682 232.671C107.682 236.446 104.6 239.467 100.86 239.467C97.1205 239.467 94.0378 236.396 94.0378 232.671C94.0378 228.946 97.1205 225.876 100.86 225.876C104.6 225.876 107.682 228.946 107.682 232.671ZM114.606 229.349C110.816 229.349 107.783 226.278 107.783 222.553C107.783 218.828 110.866 215.758 114.606 215.758C118.345 215.758 121.428 218.828 121.428 222.553C121.428 226.278 118.345 229.349 114.606 229.349ZM130.07 237.201C130.07 240.977 126.987 243.997 123.247 243.997C119.508 243.997 116.425 240.926 116.425 237.201C116.425 233.477 119.508 230.406 123.247 230.406C126.987 230.406 130.07 233.477 130.07 237.201ZM133.203 210.221C133.203 213.996 130.12 217.016 126.381 217.016C122.641 217.016 119.558 213.946 119.558 210.221C119.558 206.496 122.641 203.425 126.381 203.425C130.12 203.425 133.203 206.496 133.203 210.221ZM135.932 203.073C132.142 203.073 129.109 200.002 129.109 196.277C129.109 192.552 132.192 189.482 135.932 189.482C139.671 189.482 142.754 192.552 142.754 196.277C142.754 200.002 139.671 203.073 135.932 203.073ZM152.811 211.781C152.811 215.556 149.728 218.577 145.988 218.577C142.249 218.577 139.166 215.506 139.166 211.781C139.166 208.056 142.249 204.985 145.988 204.985C149.728 204.985 152.811 208.056 152.811 211.781ZM160.896 97.4645C160.896 101.24 157.864 104.31 154.074 104.31C150.334 104.31 147.252 101.29 147.252 97.5148C147.252 93.7395 150.284 90.6689 154.074 90.6689C157.814 90.6689 160.896 93.6892 160.896 97.4645Z" fill="white" fill-opacity="0.15"/>
<defs>
<filter id="filter0_d_4275_57321" x="-223.049" y="-185.79" width="611.097" height="688.58" filterUnits="userSpaceOnUse" color-interpolation-filters="sRGB">
<feFlood flood-opacity="0" result="BackgroundImageFix"/>
<feColorMatrix in="SourceAlpha" type="matrix" values="0 0 0 0 0 0 0 0 0 0 0 0 0 0 0 0 0 0 127 0" result="hardAlpha"/>
<feOffset dx="-2" dy="3"/>
<feGaussianBlur stdDeviation="3"/>
<feComposite in2="hardAlpha" operator="out"/>
<feColorMatrix type="matrix" values="0 0 0 0 0 0 0 0 0 0 0 0 0 0 0 0 0 0 0.25 0"/>
<feBlend mode="normal" in2="BackgroundImageFix" result="effect1_dropShadow_4275_57321"/>
<feBlend mode="normal" in="SourceGraphic" in2="effect1_dropShadow_4275_57321" result="shape"/>
</filter>
</defs>
</svg>
